08-11-2019 00:43:21 Response for ET;6;866425032478580;RH;8+191108064316+0+0+0+0+11+3769+193+-102 :<br />
<b>Notice</b>:  Undefined variable: latitude in <b>/var/www/html/dev/telnet/7001/index.php</b> on line <b>197</b><br />
<br />
<b>Notice</b>:  Undefined variable: type in <b>/var/www/html/dev/telnet/7001/index.php</b> on line <b>211</b><br />
<br />
<b>Notice</b>:  Undefined variable: speedKPH in <b>/var/www/html/dev/telnet/7001/index.php</b> on line <b>211</b><br />
<br />
<b>Notice</b>:  Undefined variable: batteryLevel in <b>/var/www/html/dev/telnet/7001/index.php</b> on line <b>211</b><br />
duplicate lat long from device
08-11-2019 00:45:21 Response for ET;6;866425032478580;R0;6+191108064516+-26.63604+153.09938+0.00+292+2+3767+194+-102 :Data Received
08-11-2019 00:51:21 Response for ET;6;866425032478580;RH;6+191108065116+0+0+0+0+11+3765+195+-102 :<br />
<b>Notice</b>:  Undefined variable: latitude in <b>/var/www/html/dev/telnet/7001/index.php</b> on line <b>197</b><br />
<br />
<b>Notice</b>:  Undefined variable: type in <b>/var/www/html/dev/telnet/7001/index.php</b> on line <b>211</b><br />
<br />
<b>Notice</b>:  Undefined variable: speedKPH in <b>/var/www/html/dev/telnet/7001/index.php</b> on line <b>211</b><br />
<br />
<b>Notice</b>:  Undefined variable: batteryLevel in <b>/var/www/html/dev/telnet/7001/index.php</b> on line <b>211</b><br />
duplicate lat long from device
08-11-2019 00:55:21 Response for ET;6;866425032478580;R0;5+191108065516+-26.63601+153.09945+1.29+334+2+3764+196+-102 :Data Received
08-11-2019 00:59:21 Response for ET;6;866425032478580;RH;7+191108065916+0+0+0+0+11+3762+197+-102 :<br />
<b>Notice</b>:  Undefined variable: latitude in <b>/var/www/html/dev/telnet/7001/index.php</b> on line <b>197</b><br />
<br />
<b>Notice</b>:  Undefined variable: type in <b>/var/www/html/dev/telnet/7001/index.php</b> on line <b>211</b><br />
<br />
<b>Notice</b>:  Undefined variable: speedKPH in <b>/var/www/html/dev/telnet/7001/index.php</b> on line <b>211</b><br />
<br />
<b>Notice</b>:  Undefined variable: batteryLevel in <b>/var/www/html/dev/telnet/7001/index.php</b> on line <b>211</b><br />
duplicate lat long from device
08-11-2019 01:05:21 Response for ET;6;866425032478580;R0;6+191108070516+-26.63613+153.09957+0.00+357+2+3765+198+-102 :Data Received
08-11-2019 01:07:21 Response for ET;6;866425032478580;RH;8+191108070716+0+0+0+0+11+3760+199+-102 :<br />
<b>Notice</b>:  Undefined variable: latitude in <b>/var/www/html/dev/telnet/7001/index.php</b> on line <b>197</b><br />
<br />
<b>Notice</b>:  Undefined variable: type in <b>/var/www/html/dev/telnet/7001/index.php</b> on line <b>211</b><br />
<br />
<b>Notice</b>:  Undefined variable: speedKPH in <b>/var/www/html/dev/telnet/7001/index.php</b> on line <b>211</b><br />
<br />
<b>Notice</b>:  Undefined variable: batteryLevel in <b>/var/www/html/dev/telnet/7001/index.php</b> on line <b>211</b><br />
duplicate lat long from device
08-11-2019 01:15:21 Response for ET;6;866425032478580;RH;6+191108071516+0+0+0+0+11+3762+200+-102ET;6;866425032478580;R0;6+191108071516+-26.63610+153.09953+0.00+137+2+3762+201+-102 :<br />
<b>Notice</b>:  Undefined variable: latitude in <b>/var/www/html/dev/telnet/7001/index.php</b> on line <b>197</b><br />
<br />
<b>Notice</b>:  Undefined variable: type in <b>/var/www/html/dev/telnet/7001/index.php</b> on line <b>211</b><br />
<br />
<b>Notice</b>:  Undefined variable: speedKPH in <b>/var/www/html/dev/telnet/7001/index.php</b> on line <b>211</b><br />
<br />
<b>Notice</b>:  Undefined variable: batteryLevel in <b>/var/www/html/dev/telnet/7001/index.php</b> on line <b>211</b><br />
duplicate lat long from device
08-11-2019 01:23:20 Response for ET;6;866425032478580;RH;7+191108072316+0+0+0+0+11+3760+202+-102 :<br />
<b>Notice</b>:  Undefined variable: latitude in <b>/var/www/html/dev/telnet/7001/index.php</b> on line <b>197</b><br />
<br />
<b>Notice</b>:  Undefined variable: type in <b>/var/www/html/dev/telnet/7001/index.php</b> on line <b>211</b><br />
<br />
<b>Notice</b>:  Undefined variable: speedKPH in <b>/var/www/html/dev/telnet/7001/index.php</b> on line <b>211</b><br />
<br />
<b>Notice</b>:  Undefined variable: batteryLevel in <b>/var/www/html/dev/telnet/7001/index.php</b> on line <b>211</b><br />
duplicate lat long from device
08-11-2019 01:25:21 Response for ET;6;866425032478580;R0;9+191108072516+-26.63611+153.09952+0.00+137+2+3754+203+-102 :Data Received
08-11-2019 01:31:20 Response for ET;6;866425032478580;RH;7+191108073116+0+0+0+0+11+3756+204+-102 :<br />
<b>Notice</b>:  Undefined variable: latitude in <b>/var/www/html/dev/telnet/7001/index.php</b> on line <b>197</b><br />
<br />
<b>Notice</b>:  Undefined variable: type in <b>/var/www/html/dev/telnet/7001/index.php</b> on line <b>211</b><br />
<br />
<b>Notice</b>:  Undefined variable: speedKPH in <b>/var/www/html/dev/telnet/7001/index.php</b> on line <b>211</b><br />
<br />
<b>Notice</b>:  Undefined variable: batteryLevel in <b>/var/www/html/dev/telnet/7001/index.php</b> on line <b>211</b><br />
duplicate lat long from device
08-11-2019 01:35:21 Response for ET;6;866425032478580;R0;7+191108073516+-26.63610+153.09950+0.00+133+2+3754+205+-102 :Data Received
08-11-2019 01:39:20 Response for ET;6;866425032478580;RH;6+191108073916+0+0+0+0+11+3743+206+-102 :<br />
<b>Notice</b>:  Undefined variable: latitude in <b>/var/www/html/dev/telnet/7001/index.php</b> on line <b>197</b><br />
<br />
<b>Notice</b>:  Undefined variable: type in <b>/var/www/html/dev/telnet/7001/index.php</b> on line <b>211</b><br />
<br />
<b>Notice</b>:  Undefined variable: speedKPH in <b>/var/www/html/dev/telnet/7001/index.php</b> on line <b>211</b><br />
<br />
<b>Notice</b>:  Undefined variable: batteryLevel in <b>/var/www/html/dev/telnet/7001/index.php</b> on line <b>211</b><br />
duplicate lat long from device
08-11-2019 01:45:21 Response for ET;6;866425032478580;R0;4+191108074516+-26.63611+153.09947+0.00+125+2+3749+207+-102 :Data Received
08-11-2019 01:47:21 Response for ET;6;866425032478580;RH;6+191108074716+0+0+0+0+11+3748+208+-102 :<br />
<b>Notice</b>:  Undefined variable: latitude in <b>/var/www/html/dev/telnet/7001/index.php</b> on line <b>197</b><br />
<br />
<b>Notice</b>:  Undefined variable: type in <b>/var/www/html/dev/telnet/7001/index.php</b> on line <b>211</b><br />
<br />
<b>Notice</b>:  Undefined variable: speedKPH in <b>/var/www/html/dev/telnet/7001/index.php</b> on line <b>211</b><br />
<br />
<b>Notice</b>:  Undefined variable: batteryLevel in <b>/var/www/html/dev/telnet/7001/index.php</b> on line <b>211</b><br />
duplicate lat long from device
08-11-2019 01:55:20 Response for ET;6;866425032478580;RH;7+191108075516+0+0+0+0+11+3738+209+-102ET;6;866425032478580;R0;7+191108075516+-26.63612+153.09951+0.00+287+2+3738+210+-102 :<br />
<b>Notice</b>:  Undefined variable: latitude in <b>/var/www/html/dev/telnet/7001/index.php</b> on line <b>197</b><br />
<br />
<b>Notice</b>:  Undefined variable: type in <b>/var/www/html/dev/telnet/7001/index.php</b> on line <b>211</b><br />
<br />
<b>Notice</b>:  Undefined variable: speedKPH in <b>/var/www/html/dev/telnet/7001/index.php</b> on line <b>211</b><br />
<br />
<b>Notice</b>:  Undefined variable: batteryLevel in <b>/var/www/html/dev/telnet/7001/index.php</b> on line <b>211</b><br />
duplicate lat long from device
08-11-2019 02:03:21 Response for ET;6;866425032478580;RH;7+191108080316+0+0+0+0+11+3740+211+-102 :<br />
<b>Notice</b>:  Undefined variable: latitude in <b>/var/www/html/dev/telnet/7001/index.php</b> on line <b>197</b><br />
<br />
<b>Notice</b>:  Undefined variable: type in <b>/var/www/html/dev/telnet/7001/index.php</b> on line <b>211</b><br />
<br />
<b>Notice</b>:  Undefined variable: speedKPH in <b>/var/www/html/dev/telnet/7001/index.php</b> on line <b>211</b><br />
<br />
<b>Notice</b>:  Undefined variable: batteryLevel in <b>/var/www/html/dev/telnet/7001/index.php</b> on line <b>211</b><br />
duplicate lat long from device
08-11-2019 02:05:21 Response for ET;6;866425032478580;R0;7+191108080516+-26.63617+153.09956+0.00+199+2+3733+212+-102 :Data Received
08-11-2019 02:11:21 Response for ET;6;866425032478580;RH;5+191108081116+0+0+0+0+11+3731+213+-102 :<br />
<b>Notice</b>:  Undefined variable: latitude in <b>/var/www/html/dev/telnet/7001/index.php</b> on line <b>197</b><br />
<br />
<b>Notice</b>:  Undefined variable: type in <b>/var/www/html/dev/telnet/7001/index.php</b> on line <b>211</b><br />
<br />
<b>Notice</b>:  Undefined variable: speedKPH in <b>/var/www/html/dev/telnet/7001/index.php</b> on line <b>211</b><br />
<br />
<b>Notice</b>:  Undefined variable: batteryLevel in <b>/var/www/html/dev/telnet/7001/index.php</b> on line <b>211</b><br />
duplicate lat long from device
08-11-2019 02:15:21 Response for ET;6;866425032478580;R0;5+191108081516+-26.63616+153.09951+0.00+274+2+3731+214+-102 :Data Received
08-11-2019 02:19:21 Response for ET;6;866425032478580;RH;9+191108081916+0+0+0+0+11+3736+215+-102 :<br />
<b>Notice</b>:  Undefined variable: latitude in <b>/var/www/html/dev/telnet/7001/index.php</b> on line <b>197</b><br />
<br />
<b>Notice</b>:  Undefined variable: type in <b>/var/www/html/dev/telnet/7001/index.php</b> on line <b>211</b><br />
<br />
<b>Notice</b>:  Undefined variable: speedKPH in <b>/var/www/html/dev/telnet/7001/index.php</b> on line <b>211</b><br />
<br />
<b>Notice</b>:  Undefined variable: batteryLevel in <b>/var/www/html/dev/telnet/7001/index.php</b> on line <b>211</b><br />
duplicate lat long from device
08-11-2019 02:25:21 Response for ET;6;866425032478580;R0;9+191108082516+-26.63615+153.09951+0.00+274+2+3735+216+-102 :Data Received
08-11-2019 02:27:21 Response for ET;6;866425032478580;RH;7+191108082716+0+0+0+0+11+3735+217+-102 :<br />
<b>Notice</b>:  Undefined variable: latitude in <b>/var/www/html/dev/telnet/7001/index.php</b> on line <b>197</b><br />
<br />
<b>Notice</b>:  Undefined variable: type in <b>/var/www/html/dev/telnet/7001/index.php</b> on line <b>211</b><br />
<br />
<b>Notice</b>:  Undefined variable: speedKPH in <b>/var/www/html/dev/telnet/7001/index.php</b> on line <b>211</b><br />
<br />
<b>Notice</b>:  Undefined variable: batteryLevel in <b>/var/www/html/dev/telnet/7001/index.php</b> on line <b>211</b><br />
duplicate lat long from device
08-11-2019 02:35:22 Response for ET;6;866425032478580;RH;7+191108083516+0+0+0+0+11+3723+218+-102 :<br />
<b>Notice</b>:  Undefined variable: latitude in <b>/var/www/html/dev/telnet/7001/index.php</b> on line <b>197</b><br />
<br />
<b>Notice</b>:  Undefined variable: type in <b>/var/www/html/dev/telnet/7001/index.php</b> on line <b>211</b><br />
<br />
<b>Notice</b>:  Undefined variable: speedKPH in <b>/var/www/html/dev/telnet/7001/index.php</b> on line <b>211</b><br />
<br />
<b>Notice</b>:  Undefined variable: batteryLevel in <b>/var/www/html/dev/telnet/7001/index.php</b> on line <b>211</b><br />
duplicate lat long from device
08-11-2019 02:35:29 Response for ET;6;866425032478580;R0;7+191108083516+-26.63615+153.09950+0.00+274+2+3723+219+-102 :Data Received
08-11-2019 02:43:21 Response for ET;6;866425032478580;RH;7+191108084316+0+0+0+0+11+3717+220+-102 :<br />
<b>Notice</b>:  Undefined variable: latitude in <b>/var/www/html/dev/telnet/7001/index.php</b> on line <b>197</b><br />
<br />
<b>Notice</b>:  Undefined variable: type in <b>/var/www/html/dev/telnet/7001/index.php</b> on line <b>211</b><br />
<br />
<b>Notice</b>:  Undefined variable: speedKPH in <b>/var/www/html/dev/telnet/7001/index.php</b> on line <b>211</b><br />
<br />
<b>Notice</b>:  Undefined variable: batteryLevel in <b>/var/www/html/dev/telnet/7001/index.php</b> on line <b>211</b><br />
duplicate lat long from device
08-11-2019 02:45:21 Response for ET;6;866425032478580;R0;7+191108084516+-26.63615+153.09950+0.00+274+2+3722+221+-102 :duplicate lat long from device
08-11-2019 02:51:21 Response for ET;6;866425032478580;RH;6+191108085116+0+0+0+0+11+3719+222+-102 :<br />
<b>Notice</b>:  Undefined variable: latitude in <b>/var/www/html/dev/telnet/7001/index.php</b> on line <b>197</b><br />
<br />
<b>Notice</b>:  Undefined variable: type in <b>/var/www/html/dev/telnet/7001/index.php</b> on line <b>211</b><br />
<br />
<b>Notice</b>:  Undefined variable: speedKPH in <b>/var/www/html/dev/telnet/7001/index.php</b> on line <b>211</b><br />
<br />
<b>Notice</b>:  Undefined variable: batteryLevel in <b>/var/www/html/dev/telnet/7001/index.php</b> on line <b>211</b><br />
duplicate lat long from device
08-11-2019 02:55:21 Response for ET;6;866425032478580;R0;6+191108085516+-26.63615+153.09950+0.00+274+2+3707+223+-102 :duplicate lat long from device
08-11-2019 02:59:20 Response for ET;6;866425032478580;RH;5+191108085916+0+0+0+0+11+3704+224+-102 :<br />
<b>Notice</b>:  Undefined variable: latitude in <b>/var/www/html/dev/telnet/7001/index.php</b> on line <b>197</b><br />
<br />
<b>Notice</b>:  Undefined variable: type in <b>/var/www/html/dev/telnet/7001/index.php</b> on line <b>211</b><br />
<br />
<b>Notice</b>:  Undefined variable: speedKPH in <b>/var/www/html/dev/telnet/7001/index.php</b> on line <b>211</b><br />
<br />
<b>Notice</b>:  Undefined variable: batteryLevel in <b>/var/www/html/dev/telnet/7001/index.php</b> on line <b>211</b><br />
duplicate lat long from device
08-11-2019 03:05:21 Response for ET;6;866425032478580;R0;6+191108090516+-26.63614+153.09950+0.00+274+2+3709+225+-102 :Data Received
08-11-2019 03:07:20 Response for ET;6;866425032478580;RH;7+191108090716+0+0+0+0+11+3707+226+-102 :<br />
<b>Notice</b>:  Undefined variable: latitude in <b>/var/www/html/dev/telnet/7001/index.php</b> on line <b>197</b><br />
<br />
<b>Notice</b>:  Undefined variable: type in <b>/var/www/html/dev/telnet/7001/index.php</b> on line <b>211</b><br />
<br />
<b>Notice</b>:  Undefined variable: speedKPH in <b>/var/www/html/dev/telnet/7001/index.php</b> on line <b>211</b><br />
<br />
<b>Notice</b>:  Undefined variable: batteryLevel in <b>/var/www/html/dev/telnet/7001/index.php</b> on line <b>211</b><br />
duplicate lat long from device
08-11-2019 03:15:20 Response for ET;6;866425032478580;RH;5+191108091516+0+0+0+0+11+3701+227+-102ET;6;866425032478580;R0;5+191108091516+-26.63614+153.09949+0.00+274+2+3701+228+-102 :<br />
<b>Notice</b>:  Undefined variable: latitude in <b>/var/www/html/dev/telnet/7001/index.php</b> on line <b>197</b><br />
<br />
<b>Notice</b>:  Undefined variable: type in <b>/var/www/html/dev/telnet/7001/index.php</b> on line <b>211</b><br />
<br />
<b>Notice</b>:  Undefined variable: speedKPH in <b>/var/www/html/dev/telnet/7001/index.php</b> on line <b>211</b><br />
<br />
<b>Notice</b>:  Undefined variable: batteryLevel in <b>/var/www/html/dev/telnet/7001/index.php</b> on line <b>211</b><br />
duplicate lat long from device
08-11-2019 03:23:21 Response for ET;6;866425032478580;RH;8+191108092316+0+0+0+0+11+3685+229+-102 :<br />
<b>Notice</b>:  Undefined variable: latitude in <b>/var/www/html/dev/telnet/7001/index.php</b> on line <b>197</b><br />
<br />
<b>Notice</b>:  Undefined variable: type in <b>/var/www/html/dev/telnet/7001/index.php</b> on line <b>211</b><br />
<br />
<b>Notice</b>:  Undefined variable: speedKPH in <b>/var/www/html/dev/telnet/7001/index.php</b> on line <b>211</b><br />
<br />
<b>Notice</b>:  Undefined variable: batteryLevel in <b>/var/www/html/dev/telnet/7001/index.php</b> on line <b>211</b><br />
duplicate lat long from device
08-11-2019 03:25:21 Response for ET;6;866425032478580;R0;7+191108092516+-26.63614+153.09949+0.00+274+2+3680+230+-102 :Data Received
08-11-2019 03:31:21 Response for ET;6;866425032478580;RH;8+191108093116+0+0+0+0+11+3677+231+-102 :<br />
<b>Notice</b>:  Undefined variable: latitude in <b>/var/www/html/dev/telnet/7001/index.php</b> on line <b>197</b><br />
<br />
<b>Notice</b>:  Undefined variable: type in <b>/var/www/html/dev/telnet/7001/index.php</b> on line <b>211</b><br />
<br />
<b>Notice</b>:  Undefined variable: speedKPH in <b>/var/www/html/dev/telnet/7001/index.php</b> on line <b>211</b><br />
<br />
<b>Notice</b>:  Undefined variable: batteryLevel in <b>/var/www/html/dev/telnet/7001/index.php</b> on line <b>211</b><br />
duplicate lat long from device
08-11-2019 03:35:21 Response for ET;6;866425032478580;R0;6+191108093516+-26.63608+153.09946+0.00+308+2+3683+232+-102 :Data Received
08-11-2019 03:39:21 Response for ET;6;866425032478580;RH;7+191108093916+0+0+0+0+11+3675+233+-102 :<br />
<b>Notice</b>:  Undefined variable: latitude in <b>/var/www/html/dev/telnet/7001/index.php</b> on line <b>197</b><br />
<br />
<b>Notice</b>:  Undefined variable: type in <b>/var/www/html/dev/telnet/7001/index.php</b> on line <b>211</b><br />
<br />
<b>Notice</b>:  Undefined variable: speedKPH in <b>/var/www/html/dev/telnet/7001/index.php</b> on line <b>211</b><br />
<br />
<b>Notice</b>:  Undefined variable: batteryLevel in <b>/var/www/html/dev/telnet/7001/index.php</b> on line <b>211</b><br />
duplicate lat long from device
08-11-2019 03:45:22 Response for ET;6;866425032478580;R0;7+191108094516+-26.63609+153.09946+0.00+124+2+3678+234+-102 :<br />
<b>Notice</b>:  Undefined variable: alarm in <b>/var/www/html/dev/telnet/7001/index.php</b> on line <b>211</b><br />
<br />
<b>Notice</b>:  Undefined variable: alarm in <b>/var/www/html/dev/telnet/7001/index.php</b> on line <b>218</b><br />
<br />
<b>Notice</b>:  Undefined variable: alarm in <b>/var/www/html/dev/telnet/7001/index.php</b> on line <b>224</b><br />
Data Received
08-11-2019 03:47:21 Response for ET;6;866425032478580;RH;5+191108094716+0+0+0+0+11+3672+235+-102 :<br />
<b>Notice</b>:  Undefined variable: latitude in <b>/var/www/html/dev/telnet/7001/index.php</b> on line <b>197</b><br />
<br />
<b>Notice</b>:  Undefined variable: alarm in <b>/var/www/html/dev/telnet/7001/index.php</b> on line <b>211</b><br />
<br />
<b>Notice</b>:  Undefined variable: alarm in <b>/var/www/html/dev/telnet/7001/index.php</b> on line <b>218</b><br />
<br />
<b>Notice</b>:  Undefined variable: alarm in <b>/var/www/html/dev/telnet/7001/index.php</b> on line <b>224</b><br />
<br />
<b>Notice</b>:  Undefined variable: type in <b>/var/www/html/dev/telnet/7001/index.php</b> on line <b>231</b><br />
<br />
<b>Notice</b>:  Undefined variable: speedKPH in <b>/var/www/html/dev/telnet/7001/index.php</b> on line <b>231</b><br />
<br />
<b>Notice</b>:  Undefined variable: batteryLevel in <b>/var/www/html/dev/telnet/7001/index.php</b> on line <b>231</b><br />
duplicate lat long from device
08-11-2019 03:55:21 Response for ET;6;866425032478580;RH;7+191108095516+0+0+0+0+11+3675+236+-102ET;6;866425032478580;R0;7+191108095516+-26.63617+153.09958+0.00+112+2+3675+237+-102 :<br />
<b>Notice</b>:  Undefined variable: latitude in <b>/var/www/html/dev/telnet/7001/index.php</b> on line <b>197</b><br />
<br />
<b>Notice</b>:  Undefined variable: alarm in <b>/var/www/html/dev/telnet/7001/index.php</b> on line <b>211</b><br />
<br />
<b>Notice</b>:  Undefined variable: alarm in <b>/var/www/html/dev/telnet/7001/index.php</b> on line <b>218</b><br />
<br />
<b>Notice</b>:  Undefined variable: alarm in <b>/var/www/html/dev/telnet/7001/index.php</b> on line <b>224</b><br />
<br />
<b>Notice</b>:  Undefined variable: type in <b>/var/www/html/dev/telnet/7001/index.php</b> on line <b>231</b><br />
<br />
<b>Notice</b>:  Undefined variable: speedKPH in <b>/var/www/html/dev/telnet/7001/index.php</b> on line <b>231</b><br />
<br />
<b>Notice</b>:  Undefined variable: batteryLevel in <b>/var/www/html/dev/telnet/7001/index.php</b> on line <b>231</b><br />
duplicate lat long from device
08-11-2019 04:03:21 Response for ET;6;866425032478580;RH;6+191108100316+0+0+0+0+11+3664+238+-102 :<br />
<b>Notice</b>:  Undefined variable: latitude in <b>/var/www/html/dev/telnet/7001/index.php</b> on line <b>197</b><br />
<br />
<b>Notice</b>:  Undefined variable: alarm in <b>/var/www/html/dev/telnet/7001/index.php</b> on line <b>211</b><br />
<br />
<b>Notice</b>:  Undefined variable: alarm in <b>/var/www/html/dev/telnet/7001/index.php</b> on line <b>220</b><br />
<br />
<b>Notice</b>:  Undefined variable: alarm in <b>/var/www/html/dev/telnet/7001/index.php</b> on line <b>226</b><br />
<br />
<b>Notice</b>:  Undefined variable: type in <b>/var/www/html/dev/telnet/7001/index.php</b> on line <b>233</b><br />
<br />
<b>Notice</b>:  Undefined variable: speedKPH in <b>/var/www/html/dev/telnet/7001/index.php</b> on line <b>233</b><br />
<br />
<b>Notice</b>:  Undefined variable: batteryLevel in <b>/var/www/html/dev/telnet/7001/index.php</b> on line <b>233</b><br />
duplicate lat long from device
08-11-2019 04:05:21 Response for ET;6;866425032478580;R0;6+191108100516+-26.63617+153.09958+0.00+112+2+3661+239+-102 :Data Received
08-11-2019 04:11:21 Response for ET;6;866425032478580;RH;6+191108101116+0+0+0+0+11+3659+240+-102 :<br />
<b>Notice</b>:  Undefined variable: latitude in <b>/var/www/html/dev/telnet/7001/index.php</b> on line <b>197</b><br />
<br />
<b>Notice</b>:  Undefined variable: alarm in <b>/var/www/html/dev/telnet/7001/index.php</b> on line <b>211</b><br />
<br />
<b>Notice</b>:  Undefined variable: alarm in <b>/var/www/html/dev/telnet/7001/index.php</b> on line <b>220</b><br />
<br />
<b>Notice</b>:  Undefined variable: alarm in <b>/var/www/html/dev/telnet/7001/index.php</b> on line <b>226</b><br />
<br />
<b>Notice</b>:  Undefined variable: type in <b>/var/www/html/dev/telnet/7001/index.php</b> on line <b>233</b><br />
<br />
<b>Notice</b>:  Undefined variable: speedKPH in <b>/var/www/html/dev/telnet/7001/index.php</b> on line <b>233</b><br />
<br />
<b>Notice</b>:  Undefined variable: batteryLevel in <b>/var/www/html/dev/telnet/7001/index.php</b> on line <b>233</b><br />
duplicate lat long from device
08-11-2019 04:13:25 Response for ET;6;866425032478580;R0;6+191108101319+-26.63617+153.09957+0.00+112+8+3646+241+-102 :<br />
<b>Warning</b>:  mysqli_fetch_array() expects parameter 1 to be mysqli_result, boolean given in <b>/var/www/html/dev/telnet/functions.php</b> on line <b>89</b><br />
Data Received
08-11-2019 04:15:20 Response for ET;6;866425032478580;R0;8+191108101516+-26.63617+153.09957+0.00+112+2+3645+242+-102 :duplicate lat long from device
08-11-2019 04:19:20 Response for ET;6;866425032478580;RH;7+191108101916+0+0+0+0+11+3617+243+-102 :<br />
<b>Notice</b>:  Undefined variable: latitude in <b>/var/www/html/dev/telnet/7001/index.php</b> on line <b>197</b><br />
<br />
<b>Notice</b>:  Undefined variable: alarm in <b>/var/www/html/dev/telnet/7001/index.php</b> on line <b>211</b><br />
<br />
<b>Notice</b>:  Undefined variable: alarm in <b>/var/www/html/dev/telnet/7001/index.php</b> on line <b>220</b><br />
<br />
<b>Notice</b>:  Undefined variable: alarm in <b>/var/www/html/dev/telnet/7001/index.php</b> on line <b>226</b><br />
<br />
<b>Notice</b>:  Undefined variable: type in <b>/var/www/html/dev/telnet/7001/index.php</b> on line <b>233</b><br />
<br />
<b>Notice</b>:  Undefined variable: speedKPH in <b>/var/www/html/dev/telnet/7001/index.php</b> on line <b>233</b><br />
<br />
<b>Notice</b>:  Undefined variable: batteryLevel in <b>/var/www/html/dev/telnet/7001/index.php</b> on line <b>233</b><br />
duplicate lat long from device
08-11-2019 04:25:21 Response for ET;6;866425032478580;R0;8+191108102516+-26.63616+153.09957+0.00+118+2+3582+244+-102 :Data Received
08-11-2019 04:27:21 Response for ET;6;866425032478580;RH;7+191108102716+0+0+0+0+11+3564+245+-102 :<br />
<b>Notice</b>:  Undefined variable: latitude in <b>/var/www/html/dev/telnet/7001/index.php</b> on line <b>197</b><br />
<br />
<b>Notice</b>:  Undefined variable: alarm in <b>/var/www/html/dev/telnet/7001/index.php</b> on line <b>211</b><br />
<br />
<b>Notice</b>:  Undefined variable: alarm in <b>/var/www/html/dev/telnet/7001/index.php</b> on line <b>220</b><br />
<br />
<b>Notice</b>:  Undefined variable: alarm in <b>/var/www/html/dev/telnet/7001/index.php</b> on line <b>226</b><br />
<br />
<b>Notice</b>:  Undefined variable: type in <b>/var/www/html/dev/telnet/7001/index.php</b> on line <b>233</b><br />
<br />
<b>Notice</b>:  Undefined variable: speedKPH in <b>/var/www/html/dev/telnet/7001/index.php</b> on line <b>233</b><br />
<br />
<b>Notice</b>:  Undefined variable: batteryLevel in <b>/var/www/html/dev/telnet/7001/index.php</b> on line <b>233</b><br />
duplicate lat long from device
08-11-2019 04:35:21 Response for ET;6;866425032478580;RH;8+191108103516+0+0+0+0+11+3503+246+-102ET;6;866425032478580;R0;8+191108103516+-26.63614+153.09954+0.00+119+2+3503+247+-102 :<br />
<b>Notice</b>:  Undefined variable: latitude in <b>/var/www/html/dev/telnet/7001/index.php</b> on line <b>197</b><br />
<br />
<b>Notice</b>:  Undefined variable: alarm in <b>/var/www/html/dev/telnet/7001/index.php</b> on line <b>211</b><br />
<br />
<b>Notice</b>:  Undefined variable: alarm in <b>/var/www/html/dev/telnet/7001/index.php</b> on line <b>220</b><br />
<br />
<b>Notice</b>:  Undefined variable: alarm in <b>/var/www/html/dev/telnet/7001/index.php</b> on line <b>226</b><br />
<br />
<b>Notice</b>:  Undefined variable: type in <b>/var/www/html/dev/telnet/7001/index.php</b> on line <b>233</b><br />
<br />
<b>Notice</b>:  Undefined variable: speedKPH in <b>/var/www/html/dev/telnet/7001/index.php</b> on line <b>233</b><br />
<br />
<b>Notice</b>:  Undefined variable: batteryLevel in <b>/var/www/html/dev/telnet/7001/index.php</b> on line <b>233</b><br />
duplicate lat long from device
08-11-2019 04:35:45 Response for ET;6;866425032478580;R0;7+191108103539+-26.63614+153.09954+0.00+119+12+3495+248+-102 :Data Received
