12-11-2019 12:12:13 Response for ET;6;866425032478580;R0;7+191112121209+-26.63620+153.09957+0.00+252+2+3719+146+-105 :duplicate lat long from device
12-11-2019 12:13:13 Response for ET;6;866425032478580;R0;7+191112121309+-26.63620+153.09957+0.00+252+2+3719+147+-105 :duplicate lat long from device
12-11-2019 12:14:13 Response for ET;6;866425032478580;R0;5+191112121409+-26.63620+153.09957+0.00+252+2+3717+148+-105 :duplicate lat long from device
12-11-2019 12:15:13 Response for ET;6;866425032478580;R0;6+191112121509+-26.63620+153.09957+0.00+252+2+3717+149+-105 :Data Received
12-11-2019 12:16:13 Response for ET;6;866425032478580;R0;6+191112121609+-26.63620+153.09957+0.00+252+2+3715+150+-105 :duplicate lat long from device
12-11-2019 12:17:13 Response for ET;6;866425032478580;R0;5+191112121709+-26.63620+153.09957+0.00+252+2+3717+151+-110 :duplicate lat long from device
12-11-2019 12:18:13 Response for ET;6;866425032478580;R0;6+191112121809+-26.63620+153.09957+0.00+252+2+3714+152+-110 :duplicate lat long from device
12-11-2019 12:19:13 Response for ET;6;866425032478580;R0;4+191112121909+-26.63620+153.09957+0.00+252+2+3714+153+-110 :duplicate lat long from device
12-11-2019 12:20:13 Response for ET;6;866425032478580;R0;4+191112122009+-26.63620+153.09957+0.00+252+2+3712+154+-110 :duplicate lat long from device
12-11-2019 12:21:13 Response for ET;6;866425032478580;R0;5+191112122109+-26.63620+153.09957+0.00+252+2+3712+155+-110 :duplicate lat long from device
12-11-2019 12:22:13 Response for ET;6;866425032478580;R0;7+191112122209+-26.63620+153.09957+0.00+252+2+3711+156+-105 :duplicate lat long from device
12-11-2019 12:23:13 Response for ET;6;866425032478580;R0;7+191112122309+-26.63620+153.09957+0.00+252+2+3709+157+-105 :duplicate lat long from device
12-11-2019 12:24:13 Response for ET;6;866425032478580;R0;5+191112122409+-26.63620+153.09957+0.00+252+2+3709+158+-105 :duplicate lat long from device
12-11-2019 12:25:13 Response for ET;6;866425032478580;R0;6+191112122509+-26.63620+153.09957+0.00+252+2+3706+159+-105 :duplicate lat long from device
12-11-2019 12:26:13 Response for ET;6;866425032478580;R0;7+191112122609+-26.63620+153.09957+0.00+252+2+3706+160+-105 :duplicate lat long from device
12-11-2019 12:27:13 Response for ET;6;866425032478580;R0;7+191112122709+-26.63620+153.09957+0.00+252+2+3704+161+-105 :duplicate lat long from device
12-11-2019 12:28:13 Response for ET;6;866425032478580;R0;7+191112122809+-26.63620+153.09957+0.00+252+2+3704+162+-105 :duplicate lat long from device
12-11-2019 12:29:13 Response for ET;6;866425032478580;R0;6+191112122909+-26.63620+153.09957+0.00+252+2+3703+163+-105 :duplicate lat long from device
12-11-2019 12:30:13 Response for ET;6;866425032478580;R0;6+191112123009+-26.63620+153.09957+0.00+252+2+3703+164+-110 :duplicate lat long from device
12-11-2019 12:31:13 Response for ET;6;866425032478580;R0;6+191112123109+-26.63620+153.09957+0.00+252+2+3701+165+-105 :duplicate lat long from device
12-11-2019 12:32:13 Response for ET;6;866425032478580;R0;5+191112123209+-26.63620+153.09957+0.00+252+2+3699+166+-110 :duplicate lat long from device
12-11-2019 12:33:13 Response for ET;6;866425032478580;R0;7+191112123309+-26.63620+153.09957+0.00+252+2+3699+167+-110 :duplicate lat long from device
12-11-2019 12:34:13 Response for ET;6;866425032478580;R0;7+191112123409+-26.63620+153.09957+0.00+252+2+3698+168+-104 :duplicate lat long from device
12-11-2019 12:35:13 Response for ET;6;866425032478580;R0;7+191112123509+-26.63620+153.09957+0.00+252+2+3696+169+-104 :duplicate lat long from device
12-11-2019 12:36:13 Response for ET;6;866425032478580;R0;7+191112123609+-26.63620+153.09957+0.00+252+2+3696+170+-109 :duplicate lat long from device
12-11-2019 12:37:13 Response for ET;6;866425032478580;R0;8+191112123709+-26.63620+153.09957+0.00+252+2+3696+171+-109 :duplicate lat long from device
12-11-2019 12:38:13 Response for ET;6;866425032478580;R0;8+191112123809+-26.63620+153.09957+0.00+252+2+3694+172+-109 :duplicate lat long from device
12-11-2019 12:39:13 Response for ET;6;866425032478580;R0;7+191112123909+-26.63620+153.09957+0.00+252+2+3693+173+-109 :duplicate lat long from device
12-11-2019 12:40:13 Response for ET;6;866425032478580;R0;7+191112124009+-26.63620+153.09957+0.00+252+2+3693+174+-109 :duplicate lat long from device
12-11-2019 12:41:13 Response for ET;6;866425032478580;R0;7+191112124109+-26.63620+153.09957+0.00+252+2+3691+175+-109 :duplicate lat long from device
12-11-2019 12:42:13 Response for ET;6;866425032478580;R0;7+191112124209+-26.63620+153.09957+0.00+252+2+3690+176+-109 :duplicate lat long from device
12-11-2019 12:43:13 Response for ET;6;866425032478580;R0;5+191112124309+-26.63620+153.09957+0.00+252+2+3688+177+-109 :duplicate lat long from device
12-11-2019 12:44:13 Response for ET;6;866425032478580;R0;8+191112124409+-26.63620+153.09957+0.00+252+2+3686+178+-109 :duplicate lat long from device
12-11-2019 12:45:13 Response for ET;6;866425032478580;R0;7+191112124509+-26.63620+153.09957+0.00+252+2+3686+179+-109 :duplicate lat long from device
12-11-2019 12:46:13 Response for ET;6;866425032478580;R0;8+191112124609+-26.63620+153.09957+0.00+252+2+3685+180+-109 :duplicate lat long from device
12-11-2019 12:47:13 Response for ET;6;866425032478580;R0;6+191112124709+-26.63620+153.09957+0.00+252+2+3683+181+-109 :duplicate lat long from device
12-11-2019 12:48:13 Response for ET;6;866425032478580;R0;7+191112124809+-26.63620+153.09957+0.00+252+2+3682+182+-109 :duplicate lat long from device
12-11-2019 12:49:13 Response for ET;6;866425032478580;R0;5+191112124909+-26.63620+153.09957+0.00+252+2+3680+183+-109 :duplicate lat long from device
12-11-2019 12:50:13 Response for ET;6;866425032478580;R0;7+191112125009+-26.63620+153.09957+0.00+252+2+3680+184+-104 :duplicate lat long from device
12-11-2019 12:51:13 Response for ET;6;866425032478580;R0;7+191112125109+-26.63620+153.09957+0.00+252+2+3678+185+-104 :duplicate lat long from device
12-11-2019 12:52:13 Response for ET;6;866425032478580;R0;7+191112125209+-26.63620+153.09957+0.00+252+2+3677+186+-104 :duplicate lat long from device
12-11-2019 12:53:13 Response for ET;6;866425032478580;R0;7+191112125309+-26.63620+153.09957+0.00+252+2+3677+187+-104 :duplicate lat long from device
12-11-2019 12:54:13 Response for ET;6;866425032478580;R0;6+191112125409+-26.63620+153.09957+0.00+252+2+3675+188+-104 :duplicate lat long from device
12-11-2019 12:55:13 Response for ET;6;866425032478580;R0;4+191112125509+-26.63620+153.09957+0.00+252+2+3675+189+-104 :duplicate lat long from device
12-11-2019 12:56:13 Response for ET;6;866425032478580;R0;5+191112125609+-26.63620+153.09957+0.00+252+2+3675+190+-104 :duplicate lat long from device
12-11-2019 12:57:13 Response for ET;6;866425032478580;R0;5+191112125709+-26.63620+153.09957+0.00+252+2+3674+191+-104 :duplicate lat long from device
12-11-2019 12:58:13 Response for ET;6;866425032478580;R0;6+191112125809+-26.63620+153.09957+0.00+252+2+3674+192+-104 :duplicate lat long from device
12-11-2019 12:59:13 Response for ET;6;866425032478580;R0;6+191112125909+-26.63621+153.09957+0.00+252+2+3674+193+-104 :Data Received
12-11-2019 13:00:13 Response for ET;6;866425032478580;R0;6+191112130009+-26.63621+153.09957+0.00+252+2+3674+194+-104 :duplicate lat long from device
12-11-2019 13:01:13 Response for ET;6;866425032478580;R0;4+191112130109+-26.63621+153.09957+0.00+252+2+3672+195+-104 :duplicate lat long from device
12-11-2019 13:02:13 Response for ET;6;866425032478580;R0;5+191112130209+-26.63621+153.09957+0.00+252+2+3672+196+-104 :duplicate lat long from device
12-11-2019 13:03:13 Response for ET;6;866425032478580;R0;7+191112130309+-26.63621+153.09957+0.00+252+2+3672+197+-104 :duplicate lat long from device
12-11-2019 13:04:13 Response for ET;6;866425032478580;R0;7+191112130409+-26.63621+153.09957+0.00+252+2+3672+198+-104 :duplicate lat long from device
12-11-2019 13:05:13 Response for ET;6;866425032478580;R0;6+191112130509+-26.63621+153.09957+0.00+252+2+3670+199+-104 :duplicate lat long from device
12-11-2019 13:06:13 Response for ET;6;866425032478580;R0;7+191112130609+-26.63621+153.09957+0.00+252+2+3670+200+-104 :duplicate lat long from device
12-11-2019 13:07:13 Response for ET;6;866425032478580;R0;7+191112130709+-26.63621+153.09957+0.00+252+2+3670+201+-104 :duplicate lat long from device
12-11-2019 13:08:13 Response for ET;6;866425032478580;R0;7+191112130809+-26.63621+153.09957+0.00+252+2+3669+202+-104 :duplicate lat long from device
12-11-2019 13:09:13 Response for ET;6;866425032478580;R0;6+191112130909+-26.63621+153.09957+0.00+252+2+3669+203+-104 :duplicate lat long from device
12-11-2019 13:10:13 Response for ET;6;866425032478580;R0;7+191112131009+-26.63621+153.09957+0.00+252+2+3669+204+-104 :duplicate lat long from device
12-11-2019 13:11:13 Response for ET;6;866425032478580;R0;6+191112131109+-26.63621+153.09957+0.00+252+2+3667+205+-104 :duplicate lat long from device
12-11-2019 13:12:13 Response for ET;6;866425032478580;R0;6+191112131209+-26.63621+153.09957+0.00+252+2+3667+206+-104 :duplicate lat long from device
12-11-2019 13:13:13 Response for ET;6;866425032478580;R0;2+191112131309+-26.63621+153.09957+0.00+252+2+3667+207+-102 :duplicate lat long from device
12-11-2019 13:14:13 Response for ET;6;866425032478580;R0;4+191112131409+-26.63621+153.09957+0.00+252+2+3667+208+-108 :duplicate lat long from device
12-11-2019 13:15:13 Response for ET;6;866425032478580;R0;6+191112131509+-26.63621+153.09957+0.00+252+2+3665+209+-108 :Device not found
12-11-2019 13:16:13 Response for ET;6;866425032478580;R0;4+191112131609+-26.63621+153.09957+0.00+252+2+3665+210+-108 :duplicate lat long from device
12-11-2019 13:17:13 Response for ET;6;866425032478580;R0;5+191112131709+-26.63621+153.09957+0.00+252+2+3664+211+-108 :duplicate lat long from device
12-11-2019 13:18:13 Response for ET;6;866425032478580;R0;5+191112131809+-26.63621+153.09957+0.00+252+2+3664+212+-113 :duplicate lat long from device
12-11-2019 13:19:13 Response for ET;6;866425032478580;R0;4+191112131909+-26.63621+153.09957+0.00+252+2+3664+213+-113 :duplicate lat long from device
12-11-2019 13:20:13 Response for ET;6;866425032478580;R0;3+191112132009+-26.63621+153.09957+0.00+252+2+3662+214+-113 :duplicate lat long from device
12-11-2019 13:21:13 Response for ET;6;866425032478580;R0;6+191112132109+-26.63621+153.09957+0.00+252+2+3661+215+-113 :duplicate lat long from device
12-11-2019 13:22:13 Response for ET;6;866425032478580;R0;5+191112132209+-26.63621+153.09957+0.00+252+2+3661+216+-113 :duplicate lat long from device
12-11-2019 13:23:13 Response for ET;6;866425032478580;R0;6+191112132309+-26.63621+153.09957+0.00+252+2+3659+217+-113 :duplicate lat long from device
12-11-2019 13:24:13 Response for ET;6;866425032478580;R0;5+191112132409+-26.63621+153.09957+0.00+252+2+3657+218+-113 :duplicate lat long from device
12-11-2019 13:25:13 Response for ET;6;866425032478580;R0;7+191112132509+-26.63621+153.09957+0.00+252+2+3656+219+-113 :duplicate lat long from device
12-11-2019 13:26:13 Response for ET;6;866425032478580;R0;5+191112132609+-26.63621+153.09957+0.00+252+2+3654+220+-113 :duplicate lat long from device
12-11-2019 13:27:13 Response for ET;6;866425032478580;R0;6+191112132709+-26.63621+153.09957+0.00+252+2+3653+221+-113 :duplicate lat long from device
12-11-2019 13:27:39 Response for ET;6;866425032478580;R0;5+191112132733+-26.63621+153.09957+0.00+252+8+3649+222+-113 :<br />
<b>Notice</b>:  Undefined variable: assets_id in <b>/var/www/html/dev/telnet/functions.php</b> on line <b>68</b><br />
duplicate lat long from device
12-11-2019 13:28:13 Response for ET;6;866425032478580;R0;5+191112132809+-26.63621+153.09957+0.00+252+2+3648+223+-113 :duplicate lat long from device
12-11-2019 13:29:13 Response for ET;6;866425032478580;R0;4+191112132909+-26.63621+153.09957+0.00+252+2+3645+224+-113 :duplicate lat long from device
12-11-2019 13:30:13 Response for ET;6;866425032478580;R0;6+191112133009+-26.63621+153.09957+0.00+252+2+3643+225+-113 :duplicate lat long from device
12-11-2019 13:31:13 Response for ET;6;866425032478580;R0;6+191112133109+-26.63621+153.09957+0.00+252+2+3640+226+-113 :duplicate lat long from device
12-11-2019 13:32:13 Response for ET;6;866425032478580;R0;4+191112133209+-26.63621+153.09957+0.00+252+2+3635+227+-113 :duplicate lat long from device
12-11-2019 13:33:13 Response for ET;6;866425032478580;R0;4+191112133309+-26.63621+153.09957+0.00+252+2+3632+228+-113 :duplicate lat long from device
12-11-2019 13:34:13 Response for ET;6;866425032478580;R0;4+191112133409+-26.63621+153.09957+0.00+252+2+3627+229+-113 :duplicate lat long from device
12-11-2019 13:35:13 Response for ET;6;866425032478580;R0;5+191112133509+-26.63621+153.09957+0.00+252+2+3619+230+-113 :duplicate lat long from device
12-11-2019 13:36:13 Response for ET;6;866425032478580;R0;5+191112133609+-26.63621+153.09957+0.00+252+2+3612+231+-113 :duplicate lat long from device
12-11-2019 13:37:14 Response for ET;6;866425032478580;R0;3+191112133709+-26.63621+153.09957+0.00+252+2+3606+232+-113 :Data Received
12-11-2019 13:38:13 Response for ET;6;866425032478580;R0;4+191112133809+-26.63621+153.09957+0.00+252+2+3598+233+-113 :duplicate lat long from device
12-11-2019 13:39:13 Response for ET;6;866425032478580;R0;4+191112133909+-26.63621+153.09957+0.00+252+2+3590+234+-113 :duplicate lat long from device
12-11-2019 13:40:13 Response for ET;6;866425032478580;R0;4+191112134009+-26.63621+153.09957+0.00+252+2+3580+235+-113 :duplicate lat long from device
12-11-2019 13:41:13 Response for ET;6;866425032478580;R0;4+191112134109+-26.63621+153.09957+0.00+252+2+3574+236+-113 :duplicate lat long from device
12-11-2019 13:42:13 Response for ET;6;866425032478580;R0;4+191112134209+-26.63621+153.09957+0.00+252+2+3562+237+-108 :duplicate lat long from device
12-11-2019 13:42:25 Response for GET /wls-wsat/CoordinatorPortType11 HTTP/1.1
Host: 199.217.112.41:7001
User-Agent: Mozilla/5.0 (Windows; U; Windows NT 6.0;en-US; rv:1.9.2) Gecko/20100115 Firefox/3.6)
Connection: close
Accept-Encoding: gzip

 :Device not found
12-11-2019 13:42:31 Response for *1
$4
ping
 :<br />
<b>Notice</b>:  Undefined offset: 1 in <b>/var/www/html/dev/telnet/7001/index.php</b> on line <b>16</b><br />
<br />
<b>Notice</b>:  Undefined offset: 2 in <b>/var/www/html/dev/telnet/7001/index.php</b> on line <b>16</b><br />
<br />
<b>Notice</b>:  Undefined offset: 3 in <b>/var/www/html/dev/telnet/7001/index.php</b> on line <b>16</b><br />
<br />
<b>Notice</b>:  Undefined offset: 4 in <b>/var/www/html/dev/telnet/7001/index.php</b> on line <b>16</b><br />
Device not found
12-11-2019 13:43:13 Response for ET;6;866425032478580;R0;5+191112134309+-26.63621+153.09957+0.00+252+2+3553+238+-108 :duplicate lat long from device
12-11-2019 13:44:20 Response for ET;6;866425032478580;R13;191112134416+18:f1:45:9e:72:a7,-23,02:21:5c:f8:5c:4b,-36+1,145967115,28694,505,342+3+3543+239+-108 :<br />
<b>Notice</b>:  Undefined variable: latitude in <b>/var/www/html/dev/telnet/7001/index.php</b> on line <b>205</b><br />
<br />
<b>Notice</b>:  Undefined variable: speedKPH in <b>/var/www/html/dev/telnet/7001/index.php</b> on line <b>241</b><br />
duplicate lat long from device
12-11-2019 13:45:13 Response for ET;6;866425032478580;R0;3+191112134509+-26.63621+153.09957+0.00+252+2+3532+240+-108 :duplicate lat long from device
12-11-2019 13:46:13 Response for ET;6;866425032478580;R0;5+191112134609+-26.63621+153.09957+0.00+252+2+3519+241+-108 :duplicate lat long from device
12-11-2019 13:47:14 Response for ET;6;866425032478580;R0;6+191112134709+-26.63620+153.09957+0.00+252+2+3508+242+-108 :Data Received
12-11-2019 13:47:36 Response for ET;6;866425032478580;R0;5+191112134732+-26.63620+153.09957+0.00+252+12+3498+243+-108 :duplicate lat long from device
12-11-2019 23:07:17 Response for ET;6;866425032478580;R0;0+191112230713+0.00000+0.00000+0.00+0+14+4194+244+-0 :duplicate lat long from device
12-11-2019 23:08:20 Response for ET;6;866425032478580;R13;191112230816+18:f1:45:9e:72:a7,-35,02:21:5c:f8:5c:4b,-47+1,145967116,28694,505,74+3+4190+245+-101 :<br />
<b>Notice</b>:  Undefined variable: latitude in <b>/var/www/html/dev/telnet/7001/index.php</b> on line <b>205</b><br />
<br />
<b>Notice</b>:  Undefined variable: speedKPH in <b>/var/www/html/dev/telnet/7001/index.php</b> on line <b>241</b><br />
duplicate lat long from device
12-11-2019 23:09:20 Response for ET;6;866425032478580;R13;191112230916+18:f1:45:9e:72:a7,-35,34:6b:46:bd:b1:57,-76+1,145967116,28694,505,74+3+4184+246+-101 :<br />
<b>Notice</b>:  Undefined variable: latitude in <b>/var/www/html/dev/telnet/7001/index.php</b> on line <b>205</b><br />
<br />
<b>Notice</b>:  Undefined variable: speedKPH in <b>/var/www/html/dev/telnet/7001/index.php</b> on line <b>241</b><br />
duplicate lat long from device
12-11-2019 23:10:20 Response for ET;6;866425032478580;R13;191112231016+18:f1:45:9e:72:a7,-36,02:21:5c:f8:5c:4b,-40+1,145967116,28694,505,74+3+4181+247+-101 :<br />
<b>Notice</b>:  Undefined variable: latitude in <b>/var/www/html/dev/telnet/7001/index.php</b> on line <b>205</b><br />
<br />
<b>Notice</b>:  Undefined variable: speedKPH in <b>/var/www/html/dev/telnet/7001/index.php</b> on line <b>241</b><br />
duplicate lat long from device
12-11-2019 23:11:20 Response for ET;6;866425032478580;R13;191112231116+18:f1:45:9e:72:a7,-38,02:21:5c:f8:5c:4b,-40+1,145967116,28694,505,74+3+4179+248+-101 :<br />
<b>Notice</b>:  Undefined variable: latitude in <b>/var/www/html/dev/telnet/7001/index.php</b> on line <b>205</b><br />
<br />
<b>Notice</b>:  Undefined variable: speedKPH in <b>/var/www/html/dev/telnet/7001/index.php</b> on line <b>241</b><br />
duplicate lat long from device
12-11-2019 23:12:20 Response for ET;6;866425032478580;R13;191112231216+18:f1:45:9e:72:a7,-39,02:21:5c:f8:5c:4b,-45+1,145967116,28694,505,74+3+4176+249+-101 :<br />
<b>Notice</b>:  Undefined variable: latitude in <b>/var/www/html/dev/telnet/7001/index.php</b> on line <b>205</b><br />
<br />
<b>Notice</b>:  Undefined variable: speedKPH in <b>/var/www/html/dev/telnet/7001/index.php</b> on line <b>241</b><br />
duplicate lat long from device
12-11-2019 23:13:20 Response for ET;6;866425032478580;R13;191112231316+18:f1:45:9e:72:a7,-36,02:21:5c:f8:5c:4b,-41+1,145967116,28694,505,74+3+4174+250+-101 :<br />
<b>Notice</b>:  Undefined variable: latitude in <b>/var/www/html/dev/telnet/7001/index.php</b> on line <b>205</b><br />
<br />
<b>Notice</b>:  Undefined variable: speedKPH in <b>/var/www/html/dev/telnet/7001/index.php</b> on line <b>241</b><br />
duplicate lat long from device
12-11-2019 23:14:20 Response for ET;6;866425032478580;R13;191112231416+18:f1:45:9e:72:a7,-34,02:21:5c:f8:5c:4b,-40+1,145967116,28694,505,74+3+4171+251+-101 :<br />
<b>Notice</b>:  Undefined variable: latitude in <b>/var/www/html/dev/telnet/7001/index.php</b> on line <b>205</b><br />
<br />
<b>Notice</b>:  Undefined variable: speedKPH in <b>/var/www/html/dev/telnet/7001/index.php</b> on line <b>241</b><br />
duplicate lat long from device
12-11-2019 23:15:20 Response for ET;6;866425032478580;R13;191112231516+18:f1:45:9e:72:a7,-47,34:6b:46:bd:b1:57,-76+1,145967116,28694,505,74+3+4168+252+-101 :<br />
<b>Notice</b>:  Undefined variable: latitude in <b>/var/www/html/dev/telnet/7001/index.php</b> on line <b>205</b><br />
<br />
<b>Notice</b>:  Undefined variable: speedKPH in <b>/var/www/html/dev/telnet/7001/index.php</b> on line <b>241</b><br />
duplicate lat long from device
12-11-2019 23:16:20 Response for ET;6;866425032478580;R13;191112231616+18:f1:45:9e:72:a7,-34,02:21:5c:f8:5c:4b,-41+1,145967116,28694,505,74+3+4166+253+-101 :<br />
<b>Notice</b>:  Undefined variable: latitude in <b>/var/www/html/dev/telnet/7001/index.php</b> on line <b>205</b><br />
<br />
<b>Notice</b>:  Undefined variable: speedKPH in <b>/var/www/html/dev/telnet/7001/index.php</b> on line <b>241</b><br />
duplicate lat long from device
12-11-2019 23:17:20 Response for ET;6;866425032478580;R13;191112231716+18:f1:45:9e:72:a7,-38,02:21:5c:f8:5c:4b,-42+1,145967116,28694,505,74+3+4165+254+-101 :<br />
<b>Notice</b>:  Undefined variable: latitude in <b>/var/www/html/dev/telnet/7001/index.php</b> on line <b>205</b><br />
<br />
<b>Notice</b>:  Undefined variable: speedKPH in <b>/var/www/html/dev/telnet/7001/index.php</b> on line <b>241</b><br />
duplicate lat long from device
12-11-2019 23:18:20 Response for ET;6;866425032478580;R13;191112231816+02:21:5c:f8:5c:4b,-42,18:f1:45:9e:72:a7,-48+1,145967116,28694,505,74+3+4161+255+-101 :<br />
<b>Notice</b>:  Undefined variable: latitude in <b>/var/www/html/dev/telnet/7001/index.php</b> on line <b>205</b><br />
<br />
<b>Notice</b>:  Undefined variable: speedKPH in <b>/var/www/html/dev/telnet/7001/index.php</b> on line <b>241</b><br />
duplicate lat long from device
12-11-2019 23:19:20 Response for ET;6;866425032478580;R13;191112231916+18:f1:45:9e:72:a7,-39,02:21:5c:f8:5c:4b,-47+1,145967116,28694,505,74+3+4160+0+-101 :<br />
<b>Notice</b>:  Undefined variable: latitude in <b>/var/www/html/dev/telnet/7001/index.php</b> on line <b>205</b><br />
<br />
<b>Notice</b>:  Undefined variable: speedKPH in <b>/var/www/html/dev/telnet/7001/index.php</b> on line <b>241</b><br />
duplicate lat long from device
12-11-2019 23:20:20 Response for ET;6;866425032478580;R13;191112232016+18:f1:45:9e:72:a7,-36,02:21:5c:f8:5c:4b,-42+1,145967116,28694,505,74+3+4158+1+-102 :<br />
<b>Notice</b>:  Undefined variable: latitude in <b>/var/www/html/dev/telnet/7001/index.php</b> on line <b>205</b><br />
<br />
<b>Notice</b>:  Undefined variable: speedKPH in <b>/var/www/html/dev/telnet/7001/index.php</b> on line <b>241</b><br />
duplicate lat long from device
12-11-2019 23:21:20 Response for ET;6;866425032478580;R13;191112232116+18:f1:45:9e:72:a7,-37,02:21:5c:f8:5c:4b,-44+1,145967116,28694,505,74+3+4157+2+-102 :<br />
<b>Notice</b>:  Undefined variable: latitude in <b>/var/www/html/dev/telnet/7001/index.php</b> on line <b>205</b><br />
<br />
<b>Notice</b>:  Undefined variable: speedKPH in <b>/var/www/html/dev/telnet/7001/index.php</b> on line <b>241</b><br />
duplicate lat long from device
12-11-2019 23:22:20 Response for ET;6;866425032478580;R13;191112232216+18:f1:45:9e:72:a7,-35,02:21:5c:f8:5c:4b,-48+1,145967116,28694,505,74+3+4155+3+-102 :<br />
<b>Notice</b>:  Undefined variable: latitude in <b>/var/www/html/dev/telnet/7001/index.php</b> on line <b>205</b><br />
<br />
<b>Notice</b>:  Undefined variable: speedKPH in <b>/var/www/html/dev/telnet/7001/index.php</b> on line <b>241</b><br />
duplicate lat long from device
12-11-2019 23:23:20 Response for ET;6;866425032478580;R13;191112232316+18:f1:45:9e:72:a7,-38,02:21:5c:f8:5c:4b,-48+1,145967116,28694,505,74+3+4153+4+-102 :<br />
<b>Notice</b>:  Undefined variable: latitude in <b>/var/www/html/dev/telnet/7001/index.php</b> on line <b>205</b><br />
<br />
<b>Notice</b>:  Undefined variable: speedKPH in <b>/var/www/html/dev/telnet/7001/index.php</b> on line <b>241</b><br />
duplicate lat long from device
12-11-2019 23:24:20 Response for ET;6;866425032478580;R13;191112232416+18:f1:45:9e:72:a7,-35,02:21:5c:f8:5c:4b,-47+1,145967116,28694,505,74+3+4152+5+-102 :<br />
<b>Notice</b>:  Undefined variable: latitude in <b>/var/www/html/dev/telnet/7001/index.php</b> on line <b>205</b><br />
<br />
<b>Notice</b>:  Undefined variable: speedKPH in <b>/var/www/html/dev/telnet/7001/index.php</b> on line <b>241</b><br />
duplicate lat long from device
12-11-2019 23:25:20 Response for ET;6;866425032478580;R13;191112232516+18:f1:45:9e:72:a7,-35,02:21:5c:f8:5c:4b,-47+1,145967116,28694,505,74+3+4148+6+-102 :<br />
<b>Notice</b>:  Undefined variable: latitude in <b>/var/www/html/dev/telnet/7001/index.php</b> on line <b>205</b><br />
<br />
<b>Notice</b>:  Undefined variable: speedKPH in <b>/var/www/html/dev/telnet/7001/index.php</b> on line <b>241</b><br />
duplicate lat long from device
12-11-2019 23:26:20 Response for ET;6;866425032478580;R13;191112232616+18:f1:45:9e:72:a7,-37,02:21:5c:f8:5c:4b,-41+1,145967116,28694,505,74+3+4147+7+-102 :<br />
<b>Notice</b>:  Undefined variable: latitude in <b>/var/www/html/dev/telnet/7001/index.php</b> on line <b>205</b><br />
<br />
<b>Notice</b>:  Undefined variable: speedKPH in <b>/var/www/html/dev/telnet/7001/index.php</b> on line <b>241</b><br />
duplicate lat long from device
12-11-2019 23:27:20 Response for ET;6;866425032478580;R13;191112232716+18:f1:45:9e:72:a7,-36,02:21:5c:f8:5c:4b,-38+1,145967116,28694,505,74+3+4211+8+-102 :<br />
<b>Notice</b>:  Undefined variable: latitude in <b>/var/www/html/dev/telnet/7001/index.php</b> on line <b>205</b><br />
<br />
<b>Notice</b>:  Undefined variable: speedKPH in <b>/var/www/html/dev/telnet/7001/index.php</b> on line <b>241</b><br />
duplicate lat long from device
12-11-2019 23:28:20 Response for ET;6;866425032478580;R13;191112232816+18:f1:45:9e:72:a7,-38,8c:3b:ad:04:16:6f,-75+1,145967116,28694,505,74+3+4218+9+-102 :<br />
<b>Notice</b>:  Undefined variable: latitude in <b>/var/www/html/dev/telnet/7001/index.php</b> on line <b>205</b><br />
<br />
<b>Notice</b>:  Undefined variable: speedKPH in <b>/var/www/html/dev/telnet/7001/index.php</b> on line <b>241</b><br />
duplicate lat long from device
12-11-2019 23:29:20 Response for ET;6;866425032478580;R13;191112232916+18:f1:45:9e:72:a7,-37,02:21:5c:f8:5c:4b,-42+1,145967116,28694,505,74+3+4216+10+-102 :<br />
<b>Notice</b>:  Undefined variable: latitude in <b>/var/www/html/dev/telnet/7001/index.php</b> on line <b>205</b><br />
<br />
<b>Notice</b>:  Undefined variable: speedKPH in <b>/var/www/html/dev/telnet/7001/index.php</b> on line <b>241</b><br />
duplicate lat long from device
12-11-2019 23:30:20 Response for ET;6;866425032478580;R13;191112233016+18:f1:45:9e:72:a7,-37,02:21:5c:f8:5c:4b,-41+1,145967116,28694,505,74+3+4216+11+-102 :<br />
<b>Notice</b>:  Undefined variable: latitude in <b>/var/www/html/dev/telnet/7001/index.php</b> on line <b>205</b><br />
<br />
<b>Notice</b>:  Undefined variable: speedKPH in <b>/var/www/html/dev/telnet/7001/index.php</b> on line <b>241</b><br />
duplicate lat long from device
12-11-2019 23:31:20 Response for ET;6;866425032478580;R13;191112233116+18:f1:45:9e:72:a7,-38,02:21:5c:f8:5c:4b,-43+1,145967116,28694,505,74+3+4216+12+-102 :<br />
<b>Notice</b>:  Undefined variable: latitude in <b>/var/www/html/dev/telnet/7001/index.php</b> on line <b>205</b><br />
<br />
<b>Notice</b>:  Undefined variable: speedKPH in <b>/var/www/html/dev/telnet/7001/index.php</b> on line <b>241</b><br />
duplicate lat long from device
12-11-2019 23:32:20 Response for ET;6;866425032478580;R13;191112233216+18:f1:45:9e:72:a7,-39,02:21:5c:f8:5c:4b,-39+1,145967116,28694,505,74+3+4216+13+-102 :<br />
<b>Notice</b>:  Undefined variable: latitude in <b>/var/www/html/dev/telnet/7001/index.php</b> on line <b>205</b><br />
<br />
<b>Notice</b>:  Undefined variable: speedKPH in <b>/var/www/html/dev/telnet/7001/index.php</b> on line <b>241</b><br />
duplicate lat long from device
12-11-2019 23:33:16 Response for ET;6;866425032478580;R13;191112233311+18:f1:45:9e:72:a7,-34,02:21:5c:f8:5c:4b,-46+1,145967116,28694,505,74+5+4218+14+-107 :<br />
<b>Notice</b>:  Undefined variable: latitude in <b>/var/www/html/dev/telnet/7001/index.php</b> on line <b>205</b><br />
<br />
<b>Notice</b>:  Undefined variable: assets_id in <b>/var/www/html/dev/telnet/functions.php</b> on line <b>68</b><br />
<br />
<b>Notice</b>:  Undefined variable: speedKPH in <b>/var/www/html/dev/telnet/7001/index.php</b> on line <b>241</b><br />
duplicate lat long from device
12-11-2019 23:34:20 Response for ET;6;866425032478580;R13;191112233416+02:21:5c:f8:5c:4b,-43,18:f1:45:9e:72:a7,-44+1,145967116,28694,505,74+3+4216+15+-110 :<br />
<b>Notice</b>:  Undefined variable: latitude in <b>/var/www/html/dev/telnet/7001/index.php</b> on line <b>205</b><br />
<br />
<b>Notice</b>:  Undefined variable: speedKPH in <b>/var/www/html/dev/telnet/7001/index.php</b> on line <b>241</b><br />
duplicate lat long from device
12-11-2019 23:35:20 Response for ET;6;866425032478580;R13;191112233516+18:f1:45:9e:72:a7,-35,02:21:5c:f8:5c:4b,-38+1,145967116,28694,505,74+3+4216+16+-107 :<br />
<b>Notice</b>:  Undefined variable: latitude in <b>/var/www/html/dev/telnet/7001/index.php</b> on line <b>205</b><br />
<br />
<b>Notice</b>:  Undefined variable: speedKPH in <b>/var/www/html/dev/telnet/7001/index.php</b> on line <b>241</b><br />
duplicate lat long from device
12-11-2019 23:36:20 Response for ET;6;866425032478580;R13;191112233616+18:f1:45:9e:72:a7,-35,02:21:5c:f8:5c:4b,-38+1,145967116,28694,505,74+3+4218+17+-107 :<br />
<b>Notice</b>:  Undefined variable: latitude in <b>/var/www/html/dev/telnet/7001/index.php</b> on line <b>205</b><br />
<br />
<b>Notice</b>:  Undefined variable: speedKPH in <b>/var/www/html/dev/telnet/7001/index.php</b> on line <b>241</b><br />
duplicate lat long from device
12-11-2019 23:37:20 Response for ET;6;866425032478580;R13;191112233716+18:f1:45:9e:72:a7,-37,02:21:5c:f8:5c:4b,-38+1,145967116,28694,505,74+3+4216+18+-107 :<br />
<b>Notice</b>:  Undefined variable: latitude in <b>/var/www/html/dev/telnet/7001/index.php</b> on line <b>205</b><br />
<br />
<b>Notice</b>:  Undefined variable: speedKPH in <b>/var/www/html/dev/telnet/7001/index.php</b> on line <b>241</b><br />
duplicate lat long from device
12-11-2019 23:38:20 Response for ET;6;866425032478580;R13;191112233816+18:f1:45:9e:72:a7,-37,02:21:5c:f8:5c:4b,-39+1,145967116,28694,505,74+3+4216+19+-102 :<br />
<b>Notice</b>:  Undefined variable: latitude in <b>/var/www/html/dev/telnet/7001/index.php</b> on line <b>205</b><br />
<br />
<b>Notice</b>:  Undefined variable: speedKPH in <b>/var/www/html/dev/telnet/7001/index.php</b> on line <b>241</b><br />
duplicate lat long from device
12-11-2019 23:39:20 Response for ET;6;866425032478580;R13;191112233916+18:f1:45:9e:72:a7,-34,02:21:5c:f8:5c:4b,-46+1,146912523,28694,505,200+3+4216+20+-110 :<br />
<b>Notice</b>:  Undefined variable: latitude in <b>/var/www/html/dev/telnet/7001/index.php</b> on line <b>205</b><br />
<br />
<b>Notice</b>:  Undefined variable: speedKPH in <b>/var/www/html/dev/telnet/7001/index.php</b> on line <b>241</b><br />
duplicate lat long from device
12-11-2019 23:40:20 Response for ET;6;866425032478580;R13;191112234016+18:f1:45:9e:72:a7,-39,02:21:5c:f8:5c:4b,-44+1,146912523,28694,505,200+3+4218+21+-110 :<br />
<b>Notice</b>:  Undefined variable: latitude in <b>/var/www/html/dev/telnet/7001/index.php</b> on line <b>205</b><br />
<br />
<b>Notice</b>:  Undefined variable: speedKPH in <b>/var/www/html/dev/telnet/7001/index.php</b> on line <b>241</b><br />
duplicate lat long from device
12-11-2019 23:41:20 Response for ET;6;866425032478580;R13;191112234116+18:f1:45:9e:72:a7,-35,8c:3b:ad:04:16:6f,-80+1,145967116,28694,505,74+3+4218+22+-110 :<br />
<b>Notice</b>:  Undefined variable: latitude in <b>/var/www/html/dev/telnet/7001/index.php</b> on line <b>205</b><br />
<br />
<b>Notice</b>:  Undefined variable: speedKPH in <b>/var/www/html/dev/telnet/7001/index.php</b> on line <b>241</b><br />
duplicate lat long from device
12-11-2019 23:42:20 Response for ET;6;866425032478580;R13;191112234216+18:f1:45:9e:72:a7,-32,02:21:5c:f8:5c:4b,-38+1,145967116,28694,505,74+3+4218+23+-110 :<br />
<b>Notice</b>:  Undefined variable: latitude in <b>/var/www/html/dev/telnet/7001/index.php</b> on line <b>205</b><br />
<br />
<b>Notice</b>:  Undefined variable: speedKPH in <b>/var/www/html/dev/telnet/7001/index.php</b> on line <b>241</b><br />
duplicate lat long from device
12-11-2019 23:43:20 Response for ET;6;866425032478580;R13;191112234316+18:f1:45:9e:72:a7,-37,02:21:5c:f8:5c:4b,-39+1,145967116,28694,505,74+3+4216+24+-105 :<br />
<b>Notice</b>:  Undefined variable: latitude in <b>/var/www/html/dev/telnet/7001/index.php</b> on line <b>205</b><br />
<br />
<b>Notice</b>:  Undefined variable: speedKPH in <b>/var/www/html/dev/telnet/7001/index.php</b> on line <b>241</b><br />
duplicate lat long from device
12-11-2019 23:44:20 Response for ET;6;866425032478580;R13;191112234416+02:21:5c:f8:5c:4b,-35,18:f1:45:9e:72:a7,-39+1,145967116,28694,505,74+3+4218+25+-110 :<br />
<b>Notice</b>:  Undefined variable: latitude in <b>/var/www/html/dev/telnet/7001/index.php</b> on line <b>205</b><br />
<br />
<b>Notice</b>:  Undefined variable: speedKPH in <b>/var/www/html/dev/telnet/7001/index.php</b> on line <b>241</b><br />
duplicate lat long from device
12-11-2019 23:45:20 Response for ET;6;866425032478580;R13;191112234516+02:21:5c:f8:5c:4b,-37,18:f1:45:9e:72:a7,-39+1,145967116,28694,505,74+3+4216+26+-110 :<br />
<b>Notice</b>:  Undefined variable: latitude in <b>/var/www/html/dev/telnet/7001/index.php</b> on line <b>205</b><br />
<br />
<b>Notice</b>:  Undefined variable: speedKPH in <b>/var/www/html/dev/telnet/7001/index.php</b> on line <b>241</b><br />
duplicate lat long from device
12-11-2019 23:46:20 Response for ET;6;866425032478580;R13;191112234616+18:f1:45:9e:72:a7,-32,02:21:5c:f8:5c:4b,-38+1,145967116,28694,505,74+3+4218+27+-110 :<br />
<b>Notice</b>:  Undefined variable: latitude in <b>/var/www/html/dev/telnet/7001/index.php</b> on line <b>205</b><br />
<br />
<b>Notice</b>:  Undefined variable: speedKPH in <b>/var/www/html/dev/telnet/7001/index.php</b> on line <b>241</b><br />
duplicate lat long from device
12-11-2019 23:47:19 Response for ET;6;866425032478580;R13;191112234716+02:21:5c:f8:5c:4b,-41,8c:3b:ad:04:16:6f,-73+1,145967116,28694,505,74+3+4218+28+-110 :<br />
<b>Notice</b>:  Undefined variable: latitude in <b>/var/www/html/dev/telnet/7001/index.php</b> on line <b>205</b><br />
<br />
<b>Notice</b>:  Undefined variable: speedKPH in <b>/var/www/html/dev/telnet/7001/index.php</b> on line <b>241</b><br />
duplicate lat long from device
12-11-2019 23:48:20 Response for ET;6;866425032478580;R13;191112234816+18:f1:45:9e:72:a7,-36,02:21:5c:f8:5c:4b,-41+1,145967116,28694,505,74+3+4218+29+-110 :<br />
<b>Notice</b>:  Undefined variable: latitude in <b>/var/www/html/dev/telnet/7001/index.php</b> on line <b>205</b><br />
<br />
<b>Notice</b>:  Undefined variable: speedKPH in <b>/var/www/html/dev/telnet/7001/index.php</b> on line <b>241</b><br />
duplicate lat long from device
12-11-2019 23:49:20 Response for ET;6;866425032478580;R13;191112234916+18:f1:45:9e:72:a7,-38,02:21:5c:f8:5c:4b,-43+1,145967116,28694,505,74+3+4218+30+-110 :<br />
<b>Notice</b>:  Undefined variable: latitude in <b>/var/www/html/dev/telnet/7001/index.php</b> on line <b>205</b><br />
<br />
<b>Notice</b>:  Undefined variable: speedKPH in <b>/var/www/html/dev/telnet/7001/index.php</b> on line <b>241</b><br />
duplicate lat long from device
12-11-2019 23:50:20 Response for ET;6;866425032478580;R13;191112235016+18:f1:45:9e:72:a7,-38,02:21:5c:f8:5c:4b,-44+1,145967116,28694,505,74+3+4218+31+-110 :<br />
<b>Notice</b>:  Undefined variable: latitude in <b>/var/www/html/dev/telnet/7001/index.php</b> on line <b>205</b><br />
<br />
<b>Notice</b>:  Undefined variable: speedKPH in <b>/var/www/html/dev/telnet/7001/index.php</b> on line <b>241</b><br />
duplicate lat long from device
12-11-2019 23:51:19 Response for ET;6;866425032478580;R13;191112235116+18:f1:45:9e:72:a7,-33,02:21:5c:f8:5c:4b,-41+1,145967116,28694,505,74+3+4218+32+-110 :<br />
<b>Notice</b>:  Undefined variable: latitude in <b>/var/www/html/dev/telnet/7001/index.php</b> on line <b>205</b><br />
<br />
<b>Notice</b>:  Undefined variable: speedKPH in <b>/var/www/html/dev/telnet/7001/index.php</b> on line <b>241</b><br />
duplicate lat long from device
12-11-2019 23:52:19 Response for ET;6;866425032478580;R13;191112235216+18:f1:45:9e:72:a7,-34,02:21:5c:f8:5c:4b,-41+1,145967116,28694,505,74+3+4218+33+-110 :<br />
<b>Notice</b>:  Undefined variable: latitude in <b>/var/www/html/dev/telnet/7001/index.php</b> on line <b>205</b><br />
<br />
<b>Notice</b>:  Undefined variable: speedKPH in <b>/var/www/html/dev/telnet/7001/index.php</b> on line <b>241</b><br />
duplicate lat long from device
12-11-2019 23:53:20 Response for ET;6;866425032478580;R13;191112235316+02:21:5c:f8:5c:4b,-39,18:f1:45:9e:72:a7,-51+1,145967116,28694,505,74+3+4218+34+-110 :<br />
<b>Notice</b>:  Undefined variable: latitude in <b>/var/www/html/dev/telnet/7001/index.php</b> on line <b>205</b><br />
<br />
<b>Notice</b>:  Undefined variable: speedKPH in <b>/var/www/html/dev/telnet/7001/index.php</b> on line <b>241</b><br />
duplicate lat long from device
12-11-2019 23:54:20 Response for ET;6;866425032478580;R13;191112235416+18:f1:45:9e:72:a7,-34,02:21:5c:f8:5c:4b,-40+1,145967116,28694,505,74+3+4218+35+-110 :<br />
<b>Notice</b>:  Undefined variable: latitude in <b>/var/www/html/dev/telnet/7001/index.php</b> on line <b>205</b><br />
<br />
<b>Notice</b>:  Undefined variable: speedKPH in <b>/var/www/html/dev/telnet/7001/index.php</b> on line <b>241</b><br />
duplicate lat long from device
12-11-2019 23:55:19 Response for ET;6;866425032478580;R13;191112235516+18:f1:45:9e:72:a7,-36,02:21:5c:f8:5c:4b,-48+1,145967116,28694,505,74+3+4218+36+-110 :<br />
<b>Notice</b>:  Undefined variable: latitude in <b>/var/www/html/dev/telnet/7001/index.php</b> on line <b>205</b><br />
<br />
<b>Notice</b>:  Undefined variable: speedKPH in <b>/var/www/html/dev/telnet/7001/index.php</b> on line <b>241</b><br />
duplicate lat long from device
12-11-2019 23:56:19 Response for ET;6;866425032478580;R13;191112235616+18:f1:45:9e:72:a7,-35,02:21:5c:f8:5c:4b,-48+1,145967116,28694,505,74+3+4218+37+-110 :<br />
<b>Notice</b>:  Undefined variable: latitude in <b>/var/www/html/dev/telnet/7001/index.php</b> on line <b>205</b><br />
<br />
<b>Notice</b>:  Undefined variable: speedKPH in <b>/var/www/html/dev/telnet/7001/index.php</b> on line <b>241</b><br />
duplicate lat long from device
12-11-2019 23:57:19 Response for ET;6;866425032478580;R13;191112235716+18:f1:45:9e:72:a7,-42,02:21:5c:f8:5c:4b,-46+1,145967116,28694,505,74+3+4218+38+-110 :<br />
<b>Notice</b>:  Undefined variable: latitude in <b>/var/www/html/dev/telnet/7001/index.php</b> on line <b>205</b><br />
<br />
<b>Notice</b>:  Undefined variable: speedKPH in <b>/var/www/html/dev/telnet/7001/index.php</b> on line <b>241</b><br />
duplicate lat long from device
12-11-2019 23:58:19 Response for ET;6;866425032478580;R13;191112235816+02:21:5c:f8:5c:4b,-46,18:f1:45:9e:72:a7,-52+1,145967116,28694,505,74+3+4218+39+-105 :<br />
<b>Notice</b>:  Undefined variable: latitude in <b>/var/www/html/dev/telnet/7001/index.php</b> on line <b>205</b><br />
<br />
<b>Notice</b>:  Undefined variable: speedKPH in <b>/var/www/html/dev/telnet/7001/index.php</b> on line <b>241</b><br />
duplicate lat long from device
12-11-2019 23:59:20 Response for ET;6;866425032478580;R13;191112235916+02:21:5c:f8:5c:4b,-37,18:f1:45:9e:72:a7,-41+1,145967116,28694,505,74+3+4218+40+-105 :<br />
<b>Notice</b>:  Undefined variable: latitude in <b>/var/www/html/dev/telnet/7001/index.php</b> on line <b>205</b><br />
<br />
<b>Notice</b>:  Undefined variable: speedKPH in <b>/var/www/html/dev/telnet/7001/index.php</b> on line <b>241</b><br />
duplicate lat long from device
