15-11-2019 00:00:17 ET;6;866425032478580;R13;191115000013+18:f1:45:9e:72:a7,-33,34:6b:46:bd:b1:57,-73+1,145967115,28694,505,342+3+4216+3+-103
15-11-2019 00:01:17 ET;6;866425032478580;R13;191115000113+18:f1:45:9e:72:a7,-33,7a:8a:20:8a:4f:34,-85+1,145967115,28694,505,342+3+4216+4+-103
15-11-2019 00:02:17 ET;6;866425032478580;R13;191115000213+18:f1:45:9e:72:a7,-32,34:6b:46:bd:b1:57,-73+1,145967115,28694,505,342+3+4218+5+-103
15-11-2019 00:03:17 ET;6;866425032478580;R13;191115000313+18:f1:45:9e:72:a7,-32,34:6b:46:bd:b1:57,-73+1,145967115,28694,505,342+3+4218+6+-103
15-11-2019 00:04:17 ET;6;866425032478580;R13;191115000413+18:f1:45:9e:72:a7,-30,34:6b:46:bd:b1:57,-71+1,145967115,28694,505,342+3+4218+7+-103
15-11-2019 00:05:17 ET;6;866425032478580;R13;191115000513+18:f1:45:9e:72:a7,-32,34:6b:46:bd:b1:57,-75+1,145967115,28694,505,342+3+4218+8+-103
15-11-2019 00:06:17 ET;6;866425032478580;R13;191115000613+18:f1:45:9e:72:a7,-31,34:6b:46:bd:b1:57,-74+1,145967115,28694,505,342+3+4218+9+-103
15-11-2019 00:07:17 ET;6;866425032478580;R13;191115000713+18:f1:45:9e:72:a7,-31,34:6b:46:bd:b1:57,-73+1,145967115,28694,505,342+3+4218+10+-103
15-11-2019 00:08:17 ET;6;866425032478580;R13;191115000813+18:f1:45:9e:72:a7,-31,34:6b:46:bd:b1:57,-74+1,145967115,28694,505,342+3+4218+11+-103
15-11-2019 00:09:17 ET;6;866425032478580;R13;191115000913+18:f1:45:9e:72:a7,-31,34:6b:46:bd:b1:57,-72+1,145967115,28694,505,342+3+4218+12+-103
15-11-2019 00:10:17 ET;6;866425032478580;R13;191115001013+18:f1:45:9e:72:a7,-32,34:6b:46:bd:b1:57,-74+1,145967115,28694,505,342+3+4218+13+-103
15-11-2019 00:11:17 ET;6;866425032478580;R13;191115001113+18:f1:45:9e:72:a7,-30,26:18:d6:4f:39:15,-80+1,145967115,28694,505,342+3+4218+14+-103
15-11-2019 00:12:17 ET;6;866425032478580;R13;191115001213+18:f1:45:9e:72:a7,-30,7a:8a:20:24:83:3e,-79+1,145967115,28694,505,342+3+4216+15+-103
15-11-2019 00:13:17 ET;6;866425032478580;R13;191115001313+18:f1:45:9e:72:a7,-28,78:8a:20:8a:4f:34,-83+1,145967115,28694,505,342+3+4218+16+-103
15-11-2019 00:14:17 ET;6;866425032478580;R13;191115001413+18:f1:45:9e:72:a7,-29,34:6b:46:bd:b1:57,-71+1,145967115,28694,505,342+3+4218+17+-103
15-11-2019 00:14:17 GET /wls-wsat/CoordinatorPortType11 HTTP/1.1
Host: 199.217.112.41:7001
User-Agent: Mozilla/5.0 (Windows; U; Windows NT 6.0;en-US; rv:1.9.2) Gecko/20100115 Firefox/3.6)
Connection: close
Accept-Encoding: gzip


15-11-2019 00:14:23 *1
$4
ping

15-11-2019 00:15:17 ET;6;866425032478580;R13;191115001513+18:f1:45:9e:72:a7,-29,34:6b:46:bd:b1:57,-73+1,145967115,28694,505,342+3+4218+18+-103
15-11-2019 00:16:17 ET;6;866425032478580;R13;191115001613+18:f1:45:9e:72:a7,-34,34:6b:46:bd:b1:57,-72+1,145967115,28694,505,342+3+4218+19+-103
15-11-2019 00:17:17 ET;6;866425032478580;R13;191115001713+18:f1:45:9e:72:a7,-30,34:6b:46:bd:b1:57,-74+1,145967115,28694,505,342+3+4218+20+-103
15-11-2019 00:18:17 ET;6;866425032478580;R13;191115001813+18:f1:45:9e:72:a7,-43,8c:3b:ad:04:16:6f,-76+1,145967115,28694,505,342+3+4200+21+-113
15-11-2019 00:19:17 ET;6;866425032478580;R13;191115001913+18:f1:45:9e:72:a7,-43,34:6b:46:bd:b1:57,-75+1,145967115,28694,505,342+3+4195+22+-113
15-11-2019 00:20:17 ET;6;866425032478580;R13;191115002013+18:f1:45:9e:72:a7,-41,34:6b:46:bd:b1:57,-78+1,145967115,28694,505,342+3+4192+23+-118
15-11-2019 00:21:17 ET;6;866425032478580;R13;191115002113+18:f1:45:9e:72:a7,-45,34:6b:46:bd:b1:57,-77+1,145967115,28694,505,342+3+4190+24+-118
15-11-2019 00:22:17 ET;6;866425032478580;R13;191115002213+18:f1:45:9e:72:a7,-44,34:6b:46:bd:b1:57,-75+1,145967115,28694,505,342+3+4189+25+-118
15-11-2019 00:23:17 ET;6;866425032478580;R13;191115002313+18:f1:45:9e:72:a7,-44,34:6b:46:bd:b1:57,-75+1,145967115,28694,505,342+3+4186+26+-118
15-11-2019 00:24:17 ET;6;866425032478580;R13;191115002413+18:f1:45:9e:72:a7,-43,34:6b:46:bd:b1:57,-74+1,145967115,28694,505,342+3+4184+27+-118
15-11-2019 00:25:17 ET;6;866425032478580;R13;191115002513+18:f1:45:9e:72:a7,-43,34:6b:46:bd:b1:57,-75+1,145967115,28694,505,342+3+4181+28+-118
15-11-2019 00:26:17 ET;6;866425032478580;R13;191115002613+18:f1:45:9e:72:a7,-44,8c:3b:ad:04:16:6f,-75+1,145967115,28694,505,342+3+4179+29+-118
15-11-2019 00:27:17 ET;6;866425032478580;R13;191115002713+18:f1:45:9e:72:a7,-47,34:6b:46:bd:b1:57,-73+1,145967115,28694,505,342+3+4177+30+-119
15-11-2019 00:28:17 ET;6;866425032478580;R13;191115002813+18:f1:45:9e:72:a7,-42,34:6b:46:bd:b1:57,-74+1,145967115,28694,505,342+3+4176+31+-119
15-11-2019 00:29:17 ET;6;866425032478580;R13;191115002913+18:f1:45:9e:72:a7,-41,34:6b:46:bd:b1:57,-75+1,145967115,28694,505,342+3+4174+32+-114
15-11-2019 00:30:17 ET;6;866425032478580;R13;191115003013+18:f1:45:9e:72:a7,-41,34:6b:46:bd:b1:57,-76+1,145967115,28694,505,342+3+4173+33+-114
15-11-2019 00:31:17 ET;6;866425032478580;R13;191115003113+18:f1:45:9e:72:a7,-42,34:6b:46:bd:b1:57,-76+1,145967115,28694,505,342+3+4169+34+-114
15-11-2019 00:32:17 ET;6;866425032478580;R13;191115003213+18:f1:45:9e:72:a7,-43,34:6b:46:bd:b1:57,-76+1,145967115,28694,505,342+3+4166+35+-114
15-11-2019 00:33:17 ET;6;866425032478580;R13;191115003313+18:f1:45:9e:72:a7,-49,34:6b:46:bd:b1:57,-72+1,145967115,28694,505,342+3+4165+36+-114
15-11-2019 00:34:17 ET;6;866425032478580;R13;191115003413+18:f1:45:9e:72:a7,-42,34:6b:46:bd:b1:57,-73+1,145967115,28694,505,342+3+4165+37+-114
15-11-2019 00:35:17 ET;6;866425032478580;R13;191115003513+18:f1:45:9e:72:a7,-46,34:6b:46:bd:b1:57,-74+1,145967115,28694,505,342+3+4163+38+-114
15-11-2019 00:36:17 ET;6;866425032478580;R13;191115003613+18:f1:45:9e:72:a7,-43,34:6b:46:bd:b1:57,-75+1,145967115,28694,505,342+3+4161+39+-114
15-11-2019 00:37:17 ET;6;866425032478580;R13;191115003713+18:f1:45:9e:72:a7,-40,34:6b:46:bd:b1:57,-76+1,145967115,28694,505,342+3+4158+40+-114
15-11-2019 00:38:17 ET;6;866425032478580;R13;191115003813+18:f1:45:9e:72:a7,-40,34:6b:46:bd:b1:57,-74+1,145967115,28694,505,342+3+4157+41+-114
15-11-2019 00:39:17 ET;6;866425032478580;R13;191115003913+18:f1:45:9e:72:a7,-40,34:6b:46:bd:b1:57,-80+1,145967115,28694,505,342+3+4155+42+-114
15-11-2019 00:40:17 ET;6;866425032478580;R13;191115004013+18:f1:45:9e:72:a7,-42,34:6b:46:bd:b1:57,-75+1,145967115,28694,505,342+3+4153+43+-114
15-11-2019 00:41:17 ET;6;866425032478580;R13;191115004113+18:f1:45:9e:72:a7,-41,34:6b:46:bd:b1:57,-72+1,145967115,28694,505,342+3+4150+44+-114
15-11-2019 00:42:10 ET;6;866425032478580;R0;4+191115004206+-26.63631+153.09961+0.00+184+2+4147+45+-114
15-11-2019 00:43:10 ET;6;866425032478580;R0;4+191115004306+-26.63632+153.09961+0.00+184+2+4147+46+-114
15-11-2019 00:44:10 ET;6;866425032478580;R0;4+191115004406+-26.63632+153.09961+0.00+184+2+4144+47+-114
15-11-2019 00:45:17 ET;6;866425032478580;R13;191115004513+18:f1:45:9e:72:a7,-40,34:6b:46:bd:b1:57,-75+1,145967115,28694,505,342+3+4144+48+-109
15-11-2019 00:46:17 ET;6;866425032478580;R13;191115004613+18:f1:45:9e:72:a7,-39,34:6b:46:bd:b1:57,-75+1,145967115,28694,505,342+3+4142+49+-109
15-11-2019 00:47:10 ET;6;866425032478580;R0;4+191115004706+-26.63632+153.09961+0.00+184+2+4140+50+-109
15-11-2019 00:48:17 ET;6;866425032478580;R13;191115004813+18:f1:45:9e:72:a7,-43,34:6b:46:bd:b1:57,-76+1,145967115,28694,505,342+3+4139+51+-109
15-11-2019 00:49:17 ET;6;866425032478580;R13;191115004913+18:f1:45:9e:72:a7,-35,34:6b:46:bd:b1:57,-76+1,145967115,28694,505,342+3+4137+52+-115
15-11-2019 00:50:10 ET;6;866425032478580;R0;3+191115005006+-26.63632+153.09961+0.00+184+2+4134+53+-115
15-11-2019 00:50:42 ET;6;866425032478580;RC;ES825_SMARTSENSE_B1.05V2.8_20190830+0+300+0+3600+0+20+1+1,-26.63635,153.09958,50|0,0.00000,0.00000,0|0,0.00000,0.00000,0|0,0.00000,0.00000,0|0,0.00000,0.00000,0+54
15-11-2019 00:54:23 ET;6;866425032478580;R13;191115005420+18:f1:45:9e:72:a7,-38,34:6b:46:bd:b1:57,-71+1,145967115,28694,505,342+5+4132+55+-112
15-11-2019 00:55:43 ET;6;866425032478580;R13;191115005540+18:f1:45:9e:72:a7,-37,34:6b:46:bd:b1:57,-77+1,145967115,28694,505,342+3+4128+56+-112
15-11-2019 01:00:44 ET;6;866425032478580;R13;191115010040+18:f1:45:9e:72:a7,-38,8c:3b:ad:04:16:6f,-73+1,145967115,28694,505,342+3+4121+57+-115
15-11-2019 01:05:43 ET;6;866425032478580;R13;191115010540+18:f1:45:9e:72:a7,-39,8c:3b:ad:04:16:6f,-72+1,145967115,28694,505,342+3+4113+58+-115
15-11-2019 01:10:44 ET;6;866425032478580;R13;191115011040+18:f1:45:9e:72:a7,-39,8c:3b:ad:04:16:6f,-73+1,145967115,28694,505,342+3+4107+59+-115
15-11-2019 01:15:36 ET;6;866425032478580;R0;5+191115011533+-26.63621+153.09962+0.00+0+2+4097+60+-118
15-11-2019 01:20:37 ET;6;866425032478580;R0;3+191115012033+-26.63622+153.09963+0.00+0+2+4091+61+-118
15-11-2019 01:25:37 ET;6;866425032478580;R0;6+191115012533+-26.63620+153.09962+0.00+0+2+4082+62+-118
15-11-2019 01:27:19 ET;6;866425032478580;R0;6+191115012715+-26.63620+153.09962+0.00+0+5+4082+63+-113
15-11-2019 01:30:36 ET;6;866425032478580;R0;5+191115013033+-26.63620+153.09962+0.00+0+2+4074+64+-109
15-11-2019 01:35:43 ET;6;866425032478580;R13;191115013540+18:f1:45:9e:72:a7,-35,8c:3b:ad:04:16:6f,-78+1,145967115,28694,505,342+3+4065+65+-114
15-11-2019 01:40:37 ET;6;866425032478580;R0;4+191115014033+-26.63620+153.09962+0.00+0+2+4058+66+-114
15-11-2019 01:45:37 ET;6;866425032478580;R0;6+191115014533+-26.63620+153.09962+0.00+0+2+4055+67+-109
15-11-2019 01:50:44 ET;6;866425032478580;R13;191115015040+18:f1:45:9e:72:a7,-31,34:6b:46:bd:b1:57,-75+1,145967115,28694,505,342+3+4050+68+-115
15-11-2019 01:55:37 ET;6;866425032478580;R0;4+191115015533+-26.63620+153.09962+0.00+0+2+4045+69+-108
15-11-2019 02:00:36 ET;6;866425032478580;R0;4+191115020033+-26.63620+153.09962+0.00+0+2+4039+70+-111
15-11-2019 02:05:37 ET;6;866425032478580;R0;5+191115020533+-26.63621+153.09962+0.00+0+2+4033+71+-111
15-11-2019 02:10:37 ET;6;866425032478580;R0;5+191115021033+-26.63621+153.09962+0.00+0+2+4026+72+-111
15-11-2019 02:15:37 ET;6;866425032478580;R0;2+191115021533+-26.63621+153.09962+0.00+0+2+4016+73+-111
15-11-2019 02:20:44 ET;6;866425032478580;R13;191115022040+18:f1:45:9e:72:a7,-34,34:6b:46:bd:b1:57,-76+1,145967115,28694,505,342+3+4010+74+-111
15-11-2019 02:25:37 ET;6;866425032478580;R0;4+191115022533+-26.63621+153.09962+0.00+0+2+4002+75+-106
15-11-2019 02:30:44 ET;6;866425032478580;R13;191115023040+18:f1:45:9e:72:a7,-33,34:6b:46:bd:b1:57,-77+1,145967115,28694,505,342+3+3997+76+-111
15-11-2019 02:35:44 ET;6;866425032478580;R13;191115023540+18:f1:45:9e:72:a7,-34,8c:3b:ad:04:16:6f,-77+1,145967115,28694,505,342+3+3991+77+-111
15-11-2019 02:40:37 ET;6;866425032478580;R0;4+191115024033+-26.63620+153.09962+0.00+0+2+3984+78+-111
15-11-2019 02:43:12 ET;6;866425032478580;R0;2+191115024308+-26.63620+153.09962+0.00+0+5+3983+79+-111
15-11-2019 02:45:37 ET;6;866425032478580;R0;4+191115024533+-26.63620+153.09962+0.00+0+2+3979+80+-109
15-11-2019 02:48:28 GET /wls-wsat/CoordinatorPortType11 HTTP/1.1
Host: 199.217.112.41:7001
User-Agent: Mozilla/5.0 (Windows; U; Windows NT 6.0;en-US; rv:1.9.2) Gecko/20100115 Firefox/3.6)
Connection: close
Accept-Encoding: gzip


15-11-2019 02:48:34 *1
$4
ping

15-11-2019 02:50:37 ET;6;866425032478580;R0;5+191115025033+-26.63622+153.09962+0.00+0+2+3975+81+-109
15-11-2019 02:55:37 ET;6;866425032478580;R0;4+191115025533+-26.63622+153.09963+0.00+0+2+3971+82+-109
15-11-2019 02:56:53 ET;6;866425032478580;R0;5+191115025649+-26.63622+153.09963+0.00+0+5+3970+83+-109
15-11-2019 02:57:51 ET;6;866425032478580;R0;4+191115025747+-26.63622+153.09963+0.00+0+5+3968+84+-109
15-11-2019 03:00:37 ET;6;866425032478580;R0;4+191115030033+-26.63622+153.09964+0.00+0+2+3965+85+-114
15-11-2019 03:05:44 ET;6;866425032478580;R13;191115030540+18:f1:45:9e:72:a7,-39,7a:8a:20:8d:08:c9,-82+1,145967115,28694,505,342+3+3962+86+-114
15-11-2019 03:10:44 ET;6;866425032478580;R13;191115031040+18:f1:45:9e:72:a7,-39,8c:3b:ad:04:16:6f,-75+1,145967115,28694,505,342+3+3957+87+-114
15-11-2019 03:15:44 ET;6;866425032478580;R13;191115031540+18:f1:45:9e:72:a7,-32,34:6b:46:bd:b1:57,-75+1,145967115,28694,505,342+3+3952+88+-110
15-11-2019 03:20:44 ET;6;866425032478580;R13;191115032040+18:f1:45:9e:72:a7,-34,34:6b:46:bd:b1:57,-78+1,145967115,28694,505,342+3+3950+89+-110
15-11-2019 03:25:44 ET;6;866425032478580;R13;191115032540+18:f1:45:9e:72:a7,-35,8c:3b:ad:04:16:6f,-73+1,145967115,28694,505,342+3+3942+90+-110
15-11-2019 03:30:44 ET;6;866425032478580;R13;191115033040+18:f1:45:9e:72:a7,-39,8c:3b:ad:04:16:6f,-77+1,145967115,28694,505,342+3+3938+91+-110
15-11-2019 03:35:44 ET;6;866425032478580;R13;191115033540+18:f1:45:9e:72:a7,-41,8c:3b:ad:04:16:6f,-74+1,145967115,28694,505,342+3+3931+92+-110
15-11-2019 03:40:37 ET;6;866425032478580;R0;3+191115034033+-26.63623+153.09965+0.00+0+2+3925+93+-110
15-11-2019 03:45:44 ET;6;866425032478580;R13;191115034540+18:f1:45:9e:72:a7,-37,9a:8a:20:24:83:3e,-77+1,145967115,28694,505,342+3+3921+94+-110
15-11-2019 03:50:47 ET;6;866425032478580;R13;191115035040+18:f1:45:9e:72:a7,-63,8a:8a:20:8d:08:c9,-81+1,145967115,28694,505,342+3+3915+95+-110
15-11-2019 03:53:31 ET;6;866425032478580;R0;4+191115035327+-26.63678+153.09955+0.00+0+40+3907+96+-110
15-11-2019 03:53:49 ET;6;866425032478580;R0;4+191115035345+-26.63684+153.09954+0.00+0+30+3907+97+-110
15-11-2019 03:55:36 ET;6;866425032478580;R0;4+191115035533+-26.63641+153.09958+0.00+0+2+3905+98+-110
15-11-2019 04:00:44 ET;6;866425032478580;R13;191115040040+18:f1:45:9e:72:a7,-39,34:6b:46:bd:b1:57,-77+1,145967115,28694,505,342+3+3902+99+-110
15-11-2019 04:05:44 ET;6;866425032478580;R13;191115040540+18:f1:45:9e:72:a7,-35,78:8a:20:24:83:3e,-77+1,145967115,28694,505,342+3+3897+100+-110
15-11-2019 04:10:44 ET;6;866425032478580;R13;191115041040+18:f1:45:9e:72:a7,-36,34:6b:46:bd:b1:57,-75+1,145967115,28694,505,342+3+3889+101+-110
15-11-2019 04:12:31 ET;6;866425032478580;R13;191115041227+18:f1:45:9e:72:a7,-37,8c:3b:ad:04:16:6f,-79+1,145967115,28694,505,342+5+3888+102+-114
15-11-2019 04:13:16 ET;6;866425032478580;R13;191115041311+18:f1:45:9e:72:a7,-36,8c:3b:ad:04:16:6f,-73+1,145967115,28694,505,342+5+3884+103+-108
15-11-2019 04:15:44 ET;6;866425032478580;R13;191115041540+8c:3b:ad:04:16:6f,-73,34:6b:46:bd:b1:57,-80+1,145967115,28694,505,342+3+3880+104+-111
15-11-2019 04:20:37 ET;6;866425032478580;R0;5+191115042033+-26.63623+153.09959+0.00+0+2+3875+105+-107
15-11-2019 04:25:37 ET;6;866425032478580;R0;5+191115042533+-26.63627+153.09972+0.00+143+2+3870+106+-117
15-11-2019 04:30:44 ET;6;866425032478580;R13;191115043040+18:f1:45:9e:72:a7,-38,34:6b:46:bd:b1:57,-72+1,145967115,28694,505,342+3+3864+107+-112
15-11-2019 04:35:37 ET;6;866425032478580;R0;3+191115043533+-26.63626+153.09971+0.00+143+2+3855+108+-112
15-11-2019 04:40:44 ET;6;866425032478580;R13;191115044040+18:f1:45:9e:72:a7,-39,8c:3b:ad:04:16:6f,-73+1,145967115,28694,505,342+3+3854+109+-112
15-11-2019 04:45:44 ET;6;866425032478580;R13;191115044540+18:f1:45:9e:72:a7,-37,8a:8a:20:8d:08:c9,-77+1,145967115,28694,505,342+3+3847+110+-112
15-11-2019 04:50:37 ET;6;866425032478580;R0;3+191115045033+-26.63625+153.09969+0.00+143+2+3843+111+-112
15-11-2019 04:55:37 ET;6;866425032478580;R0;4+191115045533+-26.63625+153.09968+0.00+143+2+3839+112+-112
15-11-2019 05:00:37 ET;6;866425032478580;R0;4+191115050033+-26.63625+153.09968+0.00+143+2+3835+113+-112
15-11-2019 05:05:44 ET;6;866425032478580;R13;191115050540+18:f1:45:9e:72:a7,-37,34:6b:46:bd:b1:57,-70+1,145967115,28694,505,342+3+3833+114+-112
15-11-2019 05:10:44 ET;6;866425032478580;R13;191115051040+18:f1:45:9e:72:a7,-35,8c:3b:ad:04:16:6f,-74+1,145967115,28694,505,342+3+3830+115+-112
15-11-2019 05:15:37 ET;6;866425032478580;R0;4+191115051533+-26.63623+153.09965+0.00+143+2+3825+116+-112
15-11-2019 05:20:37 ET;6;866425032478580;R0;4+191115052033+-26.63623+153.09966+0.00+143+2+3822+117+-112
15-11-2019 05:25:37 ET;6;866425032478580;R0;4+191115052533+-26.63623+153.09966+0.00+143+2+3818+118+-112
15-11-2019 05:30:37 ET;6;866425032478580;R0;4+191115053033+-26.63624+153.09966+0.00+143+2+3815+119+-112
15-11-2019 05:35:37 ET;6;866425032478580;R0;4+191115053533+-26.63624+153.09966+0.00+143+2+3812+120+-112
15-11-2019 05:40:37 ET;6;866425032478580;R0;3+191115054033+-26.63624+153.09966+0.00+143+2+3809+121+-112
15-11-2019 05:45:44 ET;6;866425032478580;R13;191115054540+18:f1:45:9e:72:a7,-39,7a:8a:20:24:83:3e,-78+1,145967115,28694,505,342+3+3807+122+-112
15-11-2019 05:50:44 ET;6;866425032478580;R13;191115055040+34:6b:46:bd:b1:57,-74,8c:3b:ad:04:16:6f,-74+1,145967115,28694,505,342+3+3804+123+-112
15-11-2019 05:55:37 ET;6;866425032478580;R0;5+191115055533+-26.63623+153.09965+0.00+143+2+3801+124+-112
15-11-2019 06:00:37 ET;6;866425032478580;R0;4+191115060033+-26.63623+153.09965+0.00+143+2+3797+125+-112
15-11-2019 06:05:37 ET;6;866425032478580;R0;6+191115060533+-26.63622+153.09965+0.00+143+2+3796+126+-112
15-11-2019 06:10:37 ET;6;866425032478580;R0;4+191115061033+-26.63622+153.09965+0.00+143+2+3793+127+-112
15-11-2019 06:15:37 ET;6;866425032478580;R0;4+191115061533+-26.63622+153.09965+0.00+143+2+3791+128+-112
15-11-2019 06:20:45 ET;6;866425032478580;R13;191115062040+18:f1:45:9e:72:a7,-37,7a:8a:20:8d:08:c9,-79+1,145967115,28694,505,342+3+3789+129+-112
15-11-2019 06:25:37 ET;6;866425032478580;R0;4+191115062533+-26.63622+153.09965+0.00+143+2+3786+130+-112
15-11-2019 06:28:08 ET;6;866425032478580;R0;4+191115062804+-26.63622+153.09965+0.00+143+5+3786+131+-112
15-11-2019 06:30:44 ET;6;866425032478580;R13;191115063040+8c:3b:ad:04:16:6f,-72,34:6b:46:bd:b1:57,-76+1,145967115,28694,505,342+3+3783+132+-111
15-11-2019 06:35:37 ET;6;866425032478580;R0;4+191115063533+-26.63622+153.09965+0.00+143+2+3781+133+-111
15-11-2019 06:40:37 ET;6;866425032478580;R0;4+191115064033+-26.63622+153.09965+0.00+143+2+3780+134+-106
15-11-2019 06:45:37 ET;6;866425032478580;R0;4+191115064533+-26.63622+153.09964+0.00+143+2+3778+135+-106
15-11-2019 06:50:37 ET;6;866425032478580;R0;4+191115065033+-26.63622+153.09964+0.00+143+2+3777+136+-106
15-11-2019 06:55:37 ET;6;866425032478580;R0;4+191115065533+-26.63622+153.09964+0.00+143+2+3775+137+-106
15-11-2019 07:00:37 ET;6;866425032478580;R0;5+191115070033+-26.63622+153.09964+0.00+143+2+3773+138+-106
15-11-2019 07:03:00 ET;6;866425032478580;R0;4+191115070255+-26.63622+153.09964+0.00+143+5+3772+139+-111
15-11-2019 07:05:37 ET;6;866425032478580;R0;5+191115070533+-26.63622+153.09964+0.00+143+2+3772+140+-111
15-11-2019 07:10:37 ET;6;866425032478580;R0;5+191115071033+-26.63622+153.09964+0.00+143+2+3770+141+-111
15-11-2019 07:12:14 GET / HTTP/1.1
Host: 199.217.112.41:7001
User-Agent: HTTP Banner Detection (https://security.ipip.net)
Connection: close


15-11-2019 07:15:37 ET;6;866425032478580;R0;5+191115071533+-26.63622+153.09964+0.00+143+2+3769+142+-111
15-11-2019 07:17:43 ET;6;866425032478580;R0;3+191115071739+-26.63622+153.09964+0.00+143+5+3767+143+-111
15-11-2019 07:18:29 ET;6;866425032478580;R0;4+191115071826+-26.63622+153.09964+0.00+143+5+3767+144+-112
15-11-2019 07:20:36 ET;6;866425032478580;R0;3+191115072033+-26.63622+153.09964+0.00+143+2+3765+145+-112
15-11-2019 07:25:44 ET;6;866425032478580;R13;191115072540+18:f1:45:9e:72:a7,-41,8c:3b:ad:04:16:6f,-71+1,145967115,28694,505,342+3+3765+146+-117
15-11-2019 07:29:31 ET;6;866425032478580;R0;2+191115072927+-26.63622+153.09964+0.00+143+5+3762+147+-117
15-11-2019 07:30:37 ET;6;866425032478580;R0;2+191115073033+-26.63622+153.09964+0.00+143+2+3764+148+-117
15-11-2019 07:35:44 ET;6;866425032478580;R13;191115073540+18:f1:45:9e:72:a7,-35,8c:3b:ad:04:16:6f,-69+1,145967115,28694,505,342+3+3762+149+-117
15-11-2019 07:40:37 ET;6;866425032478580;R0;3+191115074033+-26.63622+153.09963+0.00+143+2+3762+150+-111
15-11-2019 07:45:37 ET;6;866425032478580;R0;4+191115074533+-26.63622+153.09963+0.00+143+2+3756+151+-117
15-11-2019 07:46:25 ET;6;866425032478580;R13;191115074621+18:f1:45:9e:72:a7,-38,34:6b:46:bd:b1:57,-73+1,145967115,28694,505,342+5+3756+152+-117
15-11-2019 07:49:35 ET;6;866425032478580;R0;4+191115074931+-26.63622+153.09963+0.00+143+5+3752+153+-117
15-11-2019 07:50:38 ET;6;866425032478580;R0;4+191115075033+-26.63622+153.09963+0.00+143+2+3752+154+-117
