[12.10.2021 01:43:53 AM] : Device Time: 1970-01-01 10:00:00 and Timezone as client time:2021-10-12 01:43:53

[12.10.2021 01:46:21 AM] : Device Time: 2021-10-12 01:40:55 and Timezone as client time:2021-10-12 01:46:21

[12.10.2021 01:47:43 AM] : Device Time: 2021-10-12 01:40:55 and Timezone as client time:2021-10-12 01:47:43

[12.10.2021 01:47:43 AM] : Address from Geocode->19 Ocean View Dr, Wamberal NSW 2260, Australia

[12.10.2021 01:47:45 AM] : Device Time: 2021-10-12 01:40:55 and Timezone as client time:2021-10-12 01:47:45

[12.10.2021 01:47:45 AM] : Address from Geocode->19 Ocean View Dr, Wamberal NSW 2260, Australia

[12.10.2021 01:48:19 AM] : Device Time: 2021-10-12 01:40:55 and Timezone as client time:2021-10-12 01:48:19

[12.10.2021 01:48:19 AM] : Address from Geocode->19 Ocean View Dr, Wamberal NSW 2260, Australia

[12.10.2021 01:49:08 AM] : Device Time: 2021-10-12 01:40:55 and Timezone as client time:2021-10-12 01:49:08

[12.10.2021 01:49:08 AM] : Address from Geocode->19 Ocean View Dr, Wamberal NSW 2260, Australia

[12.10.2021 01:49:10 AM] : Device Time: 2021-10-12 01:40:55 and Timezone as client time:2021-10-12 01:49:10

[12.10.2021 01:49:10 AM] : Address from Geocode->19 Ocean View Dr, Wamberal NSW 2260, Australia

[12.10.2021 01:49:13 AM] : Device Time: 2021-10-12 01:40:55 and Timezone as client time:2021-10-12 01:49:13

[12.10.2021 01:49:13 AM] : Address from Geocode->19 Ocean View Dr, Wamberal NSW 2260, Australia

[12.10.2021 01:49:17 AM] : Device Time: 2021-10-12 01:40:55 and Timezone as client time:2021-10-12 01:49:17

[12.10.2021 01:49:17 AM] : Address from Geocode->19 Ocean View Dr, Wamberal NSW 2260, Australia

[12.10.2021 01:49:20 AM] : Device Time: 2021-10-12 01:40:55 and Timezone as client time:2021-10-12 01:49:20

[12.10.2021 01:49:20 AM] : Address from Geocode->19 Ocean View Dr, Wamberal NSW 2260, Australia

