[06.03.2021 06:50:16 PM] : Device Time: 2021-03-06 16:52:09 and Timezone as client time:2021-03-06 18:50:16

[06.03.2021 06:50:16 PM] : device time:2021-03-06 06:52:09

[06.03.2021 06:50:16 PM] : Data =7825555455124,-26.6362328,153.0995745,1615013529000,0.0,0.0,true,watch,{"sat":13,"rssi":100,"batteryLevel":79,"steps":0,"approximate":true,"distance":0.0,"totalDistance":0.0,"motion":false}

[06.03.2021 06:50:48 PM] : Device Time: 2021-03-06 16:52:09 and Timezone as client time:2021-03-06 18:50:48

[06.03.2021 06:50:48 PM] : device time:2021-03-06 06:52:09

[06.03.2021 06:50:48 PM] : Data =7825555455124,-26.6362328,153.0995745,1615013529000,0.0,0.0,true,watch,{"sat":13,"rssi":100,"batteryLevel":79,"steps":0,"approximate":true,"distance":0.0,"totalDistance":0.0,"motion":false}

[06.03.2021 06:51:02 PM] : Device Time: 2021-03-06 16:52:09 and Timezone as client time:2021-03-06 18:51:02

[06.03.2021 06:51:02 PM] : device time:2021-03-06 06:52:09

[06.03.2021 06:51:02 PM] : Data =7825555455124,-26.6362328,153.0995745,1615013529000,0.0,0.0,true,watch,{"sat":13,"rssi":100,"batteryLevel":79,"steps":0,"approximate":false,"distance":0.0,"totalDistance":0.0,"motion":false}

